Datum	Schlusskurs	Eröffnung	Tageshoch	Tagestief
17.07.2015	1,083	1,0876	1,0908	1,0825
16.07.2015	1,0877	1,0942	1,0963	1,0855
15.07.2015	1,0951	1,1007	1,1037	1,093
14.07.2015	1,101	1,1003	1,1084	1,0965
13.07.2015	1,1005	1,1136	1,1198	1,0996
12.07.2015	1,1116	1,106	1,1124	1,106
10.07.2015	1,1157	1,1046	1,1218	1,1046
09.07.2015	1,1041	1,1072	1,1125	1,099
08.07.2015	1,1076	1,0999	1,1095	1,0974
07.07.2015	1,0996	1,1055	1,1058	1,0915
06.07.2015	1,1058	1,1006	1,1096	1,0992
05.07.2015	1,098	1,0974	1,102	1,0952
03.07.2015	1,1114	1,1085	1,1153	1,1065
02.07.2015	1,1084	1,1054	1,1121	1,1032
01.07.2015	1,1057	1,1144	1,1172	1,1042
30.06.2015	1,1143	1,1231	1,1245	1,1111
29.06.2015	1,1235	1,0964	1,1278	1,0956
28.06.2015	1,0968	1,0997	1,1045	1,0957
26.06.2015	1,1168	1,1201	1,1247	1,113
25.06.2015	1,12	1,1201	1,1228	1,1153
24.06.2015	1,1202	1,1164	1,1235	1,1159
23.06.2015	1,1165	1,134	1,1352	1,1135
22.06.2015	1,1339	1,1368	1,1411	1,1312
21.06.2015	1,137	1,1376	1,1384	1,1359
19.06.2015	1,1356	1,1369	1,14	1,1293
18.06.2015	1,137	1,1338	1,1437	1,133
17.06.2015	1,1339	1,1242	1,1363	1,1207
16.06.2015	1,1248	1,1281	1,1335	1,1205
15.06.2015	1,1281	1,1219	1,1299	1,1189
14.06.2015	1,1218	1,1267	1,1267	1,1208
12.06.2015	1,126	1,1243	1,1297	1,1151
11.06.2015	1,1239	1,1317	1,1331	1,1182
10.06.2015	1,1321	1,1278	1,1386	1,126
09.06.2015	1,1278	1,1284	1,1346	1,1214
08.06.2015	1,1285	1,1106	1,1309	1,1084
07.06.2015	1,1098	1,1113	1,1136	1,1083
05.06.2015	1,1113	1,1224	1,1285	1,105
04.06.2015	1,1224	1,127	1,1385	1,1221
03.06.2015	1,1269	1,1153	1,1286	1,108
02.06.2015	1,1152	1,0925	1,1194	1,0914
01.06.2015	1,0923	1,0976	1,0985	1,0885
31.05.2015	1,0986	1,0993	1,0993	1,098
29.05.2015	1,0909	1,0954	1,101	1,0877
28.05.2015	1,0961	1,0901	1,0973	1,0867
27.05.2015	1,09	1,088	1,0935	1,0815
26.05.2015	1,0875	1,0979	1,0983	1,0862
25.05.2015	1,0979	1,098	1,1011	1,0959
24.05.2015	1,0978	1,1	1,101	1,0978
22.05.2015	1,1013	1,1109	1,1209	1,099
21.05.2015	1,1104	1,1091	1,1185	1,108
20.05.2015	1,1094	1,1145	1,1152	1,1062
19.05.2015	1,1147	1,1314	1,1332	1,1119
18.05.2015	1,1315	1,1444	1,1451	1,1298
17.05.2015	1,1444	1,1451	1,1454	1,1432
15.05.2015	1,139	1,1407	1,1469	1,132
14.05.2015	1,1407	1,1349	1,1445	1,1341
13.05.2015	1,1349	1,1217	1,1385	1,1203
12.05.2015	1,1218	1,1154	1,128	1,1132
11.05.2015	1,1157	1,1203	1,1205	1,1131
10.05.2015	1,1204	1,1201	1,1207	1,1196
08.05.2015	1,1223	1,1253	1,1288	1,1179
07.05.2015	1,125	1,1344	1,1395	1,1237
06.05.2015	1,1347	1,1187	1,1372	1,1175
05.05.2015	1,1188	1,115	1,1223	1,1066
04.05.2015	1,1149	1,1193	1,1225	1,1123
03.05.2015	1,1198	1,12	1,1203	1,1183
01.05.2015	1,1201	1,1213	1,129	1,1175
30.04.2015	1,1212	1,1117	1,127	1,1071
29.04.2015	1,1119	1,0979	1,1188	1,0959
28.04.2015	1,0977	1,0884	1,0995	1,086
27.04.2015	1,0884	1,0868	1,0929	1,0819
26.04.2015	1,0863	1,0875	1,0875	1,0858
24.04.2015	1,0875	1,0824	1,0905	1,0785
23.04.2015	1,0821	1,0718	1,0847	1,0665
22.04.2015	1,072	1,0734	1,0805	1,0705
21.04.2015	1,074	1,0741	1,0781	1,066
20.04.2015	1,0743	1,0813	1,082	1,0712
19.04.2015	1,0814	1,0812	1,0833	1,0811
17.04.2015	1,0806	1,0761	1,0849	1,0735
16.04.2015	1,0765	1,068	1,0821	1,0625
15.04.2015	1,0682	1,0655	1,0702	1,0571
14.04.2015	1,0655	1,0568	1,0708	1,0531
13.04.2015	1,0569	1,0599	1,0623	1,0521
12.04.2015	1,0597	1,0604	1,0608	1,0585
10.04.2015	1,0586	1,0664	1,0686	1,0565
09.04.2015	1,0664	1,0783	1,0791	1,0637
08.04.2015	1,0783	1,0813	1,0888	1,0763
07.04.2015	1,0811	1,0937	1,0956	1,0799
06.04.2015	1,0934	1,0998	1,104	1,091
05.04.2015	1,0996	1,0969	1,1046	1,0966
03.04.2015	1,0895	1,0876	1,1027	1,0864
02.04.2015	1,0882	1,0773	1,0906	1,075
01.04.2015	1,0769	1,0738	1,0801	1,0715
31.03.2015	1,0742	1,0827	1,0846	1,0713
30.03.2015	1,0825	1,0885	1,0895	1,0805
29.03.2015	1,0888	1,0882	1,0899	1,0881
27.03.2015	1,0891	1,0882	1,0949	1,0801
26.03.2015	1,0877	1,0968	1,1055	1,0857
25.03.2015	1,0965	1,0913	1,1016	1,0901
24.03.2015	1,0911	1,0965	1,1031	1,0891
23.03.2015	1,096	1,0838	1,0975	1,0767
22.03.2015	1,0841	1,0842	1,0882	1,0834
20.03.2015	1,0821	1,0666	1,0882	1,0655
19.03.2015	1,0668	1,0829	1,092	1,0613
18.03.2015	1,0832	1,0592	1,1041	1,0579
17.03.2015	1,0593	1,0571	1,0651	1,0551
16.03.2015	1,057	1,05	1,0621	1,048
15.03.2015	1,0497	1,0479	1,0506	1,0458
13.03.2015	1,0497	1,0625	1,0635	1,0462
12.03.2015	1,0622	1,055	1,0685	1,0494
11.03.2015	1,0544	1,0691	1,0719	1,0511
10.03.2015	1,0681	1,0845	1,0846	1,0668
09.03.2015	1,0851	1,0839	1,0908	1,0836
08.03.2015	1,0825	1,0837	1,0839	1,0823
06.03.2015	1,0844	1,1028	1,1035	1,0837
05.03.2015	1,1034	1,1083	1,1115	1,0987
04.03.2015	1,1081	1,1179	1,1188	1,1061
03.03.2015	1,118	1,118	1,1219	1,1153
02.03.2015	1,1184	1,118	1,1245	1,116
01.03.2015	1,1183	1,118	1,1188	1,1175
27.02.2015	1,1197	1,1196	1,1249	1,1175
26.02.2015	1,1197	1,1364	1,1385	1,1184
25.02.2015	1,1365	1,1339	1,1389	1,1327
24.02.2015	1,1341	1,1334	1,1359	1,1289
23.02.2015	1,1339	1,1381	1,1394	1,1295
22.02.2015	1,1383	1,1392	1,1412	1,1382
20.02.2015	1,1385	1,1365	1,143	1,1279
19.02.2015	1,1366	1,1402	1,1455	1,1355
18.02.2015	1,1402	1,141	1,1417	1,1333
17.02.2015	1,1413	1,1343	1,1449	1,1322
16.02.2015	1,1346	1,1398	1,1435	1,1319
15.02.2015	1,1396	1,1414	1,1425	1,1388
13.02.2015	1,139	1,1404	1,1445	1,1375
12.02.2015	1,1401	1,1326	1,1427	1,1302
11.02.2015	1,1329	1,1318	1,1353	1,1278
10.02.2015	1,1317	1,1325	1,1347	1,1273
09.02.2015	1,1327	1,1312	1,136	1,127
08.02.2015	1,1309	1,1324	1,1324	1,1287
06.02.2015	1,1315	1,1476	1,1478	1,1271
05.02.2015	1,1473	1,1341	1,15	1,1304
04.02.2015	1,1334	1,147	1,1486	1,1316
03.02.2015	1,1469	1,134	1,1534	1,1313
02.02.2015	1,1336	1,1311	1,1365	1,1292
01.02.2015	1,1314	1,1315	1,1329	1,1305
30.01.2015	1,1285	1,1328	1,1365	1,1277
29.01.2015	1,1329	1,1279	1,1372	1,1262
28.01.2015	1,1274	1,1371	1,1385	1,1273
27.01.2015	1,1372	1,1237	1,1425	1,1223
26.01.2015	1,124	1,1143	1,1296	1,1098
25.01.2015	1,1147	1,1162	1,1169	1,1135
23.01.2015	1,1207	1,1367	1,1376	1,1115
22.01.2015	1,1358	1,1608	1,1651	1,1316
21.01.2015	1,1618	1,1556	1,168	1,1541
20.01.2015	1,1556	1,1605	1,1619	1,1541
19.01.2015	1,1605	1,1562	1,1645	1,155
18.01.2015	1,1564	1,1557	1,1569	1,1546
16.01.2015	1,1561	1,1633	1,1655	1,146
15.01.2015	1,163	1,1788	1,1791	1,1568
14.01.2015	1,179	1,1777	1,1847	1,1725
13.01.2015	1,1775	1,183	1,1862	1,1753
12.01.2015	1,1831	1,1863	1,1873	1,1785
11.01.2015	1,1868	1,185	1,1869	1,1842
09.01.2015	1,1844	1,1788	1,1855	1,1763
08.01.2015	1,1789	1,1833	1,1849	1,1754
07.01.2015	1,1837	1,1879	1,1897	1,1802
06.01.2015	1,1872	1,1933	1,197	1,1847
05.01.2015	1,1932	1,194	1,1977	1,1887
04.01.2015	1,1938	1,2003	1,2007	1,1869
02.01.2015	1,2002	1,2102	1,2102	1,1996
01.01.2015	1,2102	1,2099	1,2146	1,2093
31.12.2014	1,2099	1,2158	1,2171	1,2094
30.12.2014	1,2158	1,2155	1,2202	1,2123
29.12.2014	1,2159	1,2176	1,2224	1,2143
28.12.2014	1,2179	1,2181	1,2188	1,2175
26.12.2014	1,2203	1,2218	1,2225	1,2169
25.12.2014	1,2221	1,2199	1,2261	1,2188
24.12.2014	1,2198	1,2171	1,2225	1,2169
23.12.2014	1,2173	1,2228	1,2248	1,2165
22.12.2014	1,2227	1,2221	1,2275	1,2216
21.12.2014	1,2221	1,2222	1,2226	1,2221
19.12.2014	1,223	1,2289	1,2305	1,222
18.12.2014	1,2287	1,2333	1,2355	1,2265
17.12.2014	1,2333	1,251	1,2542	1,2321
16.12.2014	1,2513	1,2444	1,257	1,2435
15.12.2014	1,2442	1,2472	1,2479	1,2413
14.12.2014	1,2474	1,2471	1,2484	1,2464
12.12.2014	1,2464	1,2404	1,2486	1,2384
11.12.2014	1,2403	1,2446	1,2496	1,2369
10.12.2014	1,2448	1,238	1,2452	1,2327
09.12.2014	1,2377	1,2317	1,2448	1,2292
08.12.2014	1,2315	1,2287	1,2344	1,2247
07.12.2014	1,2289	1,2279	1,2291	1,2279
05.12.2014	1,2283	1,238	1,2393	1,2271
04.12.2014	1,2379	1,2312	1,2456	1,228
03.12.2014	1,2308	1,2384	1,2391	1,2301
02.12.2014	1,2383	1,2472	1,2476	1,2377
01.12.2014	1,2473	1,2447	1,2507	1,2419
30.11.2014	1,2448	1,2456	1,2474	1,2445
28.11.2014	1,2453	1,2461	1,249	1,2426
27.11.2014	1,246	1,2506	1,2524	1,2457
26.11.2014	1,2506	1,2474	1,2532	1,2444
25.11.2014	1,2475	1,2438	1,2487	1,2402
24.11.2014	1,2442	1,2372	1,2445	1,2364
23.11.2014	1,2371	1,2373	1,2376	1,236
21.11.2014	1,2391	1,2541	1,2568	1,2375
20.11.2014	1,2544	1,2545	1,2575	1,2504
19.11.2014	1,2547	1,2531	1,2605	1,2512
18.11.2014	1,2532	1,2447	1,2545	1,2444
17.11.2014	1,245	1,2518	1,2578	1,2445
16.11.2014	1,252	1,2538	1,2539	1,252
14.11.2014	1,2528	1,2475	1,2547	1,2399
13.11.2014	1,2477	1,2433	1,2492	1,2427
12.11.2014	1,2431	1,2474	1,2498	1,2419
11.11.2014	1,2474	1,2424	1,2499	1,2394
10.11.2014	1,2424	1,2472	1,2509	1,2418
09.11.2014	1,2462	1,2475	1,2486	1,246
07.11.2014	1,2415	1,2381	1,247	1,2358
06.11.2014	1,2379	1,2476	1,2533	1,2365
05.11.2014	1,2479	1,2554	1,2568	1,2457
04.11.2014	1,2552	1,2492	1,2577	1,2488
03.11.2014	1,249	1,251	1,2512	1,244
02.11.2014	1,2509	1,2512	1,2514	1,2501
31.10.2014	1,2514	1,2608	1,2614	1,2486
30.10.2014	1,2608	1,2637	1,264	1,2548
29.10.2014	1,2636	1,2736	1,2771	1,2627
28.10.2014	1,2736	1,2697	1,2765	1,2685
27.10.2014	1,2697	1,2677	1,2724	1,2666
26.10.2014	1,2675	1,2688	1,2689	1,2673
24.10.2014	1,266	1,2646	1,2696	1,2635
23.10.2014	1,2646	1,2646	1,2677	1,2614
22.10.2014	1,2643	1,2713	1,274	1,2637
21.10.2014	1,2714	1,2797	1,284	1,2713
20.10.2014	1,2798	1,2752	1,2817	1,2731
19.10.2014	1,2759	1,2762	1,2766	1,2745
17.10.2014	1,277	1,2799	1,2837	1,2744
16.10.2014	1,2802	1,2823	1,2845	1,2706
15.10.2014	1,2821	1,2654	1,2887	1,2625
14.10.2014	1,2659	1,2739	1,2749	1,264
13.10.2014	1,2742	1,2633	1,2769	1,2631
12.10.2014	1,2625	1,2651	1,2652	1,2621
10.10.2014	1,2627	1,2689	1,2716	1,2606
09.10.2014	1,269	1,273	1,2791	1,2664
08.10.2014	1,2731	1,2666	1,2749	1,2623
07.10.2014	1,2666	1,2653	1,2682	1,2584
06.10.2014	1,2656	1,2512	1,2675	1,2509
05.10.2014	1,2512	1,2508	1,2516	1,2505
03.10.2014	1,252	1,267	1,2672	1,2501
02.10.2014	1,2674	1,2618	1,2699	1,2614
01.10.2014	1,2618	1,2629	1,264	1,2584
30.09.2014	1,2632	1,2688	1,2703	1,2571
29.09.2014	1,2691	1,2681	1,2715	1,2664
28.09.2014	1,2682	1,2685	1,2701	1,268
26.09.2014	1,269	1,2752	1,2761	1,2677
25.09.2014	1,2751	1,2779	1,2784	1,2697
24.09.2014	1,2778	1,2849	1,2864	1,2774
23.09.2014	1,2849	1,2846	1,2901	1,2843
22.09.2014	1,2847	1,2829	1,2868	1,2816
21.09.2014	1,2828	1,2828	1,2834	1,2826
19.09.2014	1,2809	1,2919	1,2929	1,2791
18.09.2014	1,2917	1,2847	1,2931	1,2835
17.09.2014	1,2843	1,2958	1,2981	1,2836
16.09.2014	1,2959	1,2938	1,2995	1,2922
15.09.2014	1,2939	1,2969	1,297	1,2909
14.09.2014	1,2968	1,2967	1,2979	1,2966
12.09.2014	1,2968	1,2924	1,2979	1,2909
11.09.2014	1,2926	1,2919	1,2952	1,2897
10.09.2014	1,2916	1,2937	1,2963	1,2884
09.09.2014	1,2939	1,2899	1,2957	1,286
08.09.2014	1,2896	1,2956	1,2959	1,2882
07.09.2014	1,2953	1,29	1,2961	1,29
05.09.2014	1,295	1,2938	1,2988	1,2922
04.09.2014	1,2936	1,3148	1,3154	1,292
03.09.2014	1,3149	1,3134	1,316	1,3122
02.09.2014	1,3133	1,3128	1,3137	1,311
01.09.2014	1,3128	1,3131	1,3146	1,3119
31.08.2014	1,3128	1,3135	1,3146	1,3128
29.08.2014	1,3186	1,3183	1,3196	1,3132
28.08.2014	1,3184	1,3193	1,3221	1,316
27.08.2014	1,3195	1,3169	1,321	1,3153
26.08.2014	1,3167	1,3191	1,3215	1,3165
25.08.2014	1,3192	1,3195	1,321	1,3184
24.08.2014	1,3187	1,3241	1,3241	1,3184
22.08.2014	1,3248	1,3282	1,3297	1,3221
21.08.2014	1,3282	1,3258	1,3289	1,3242
20.08.2014	1,3259	1,332	1,3325	1,3255
19.08.2014	1,3318	1,3362	1,3363	1,3313
18.08.2014	1,3362	1,3394	1,3399	1,3353
17.08.2014	1,3392	1,3396	1,3402	1,3383
15.08.2014	1,34	1,3362	1,3412	1,3359
14.08.2014	1,3364	1,3363	1,3408	1,3349
13.08.2014	1,3363	1,3368	1,3415	1,3342
12.08.2014	1,3368	1,3384	1,3387	1,3336
11.08.2014	1,3385	1,3407	1,3409	1,3381
10.08.2014	1,3407	1,3412	1,3414	1,3401
08.08.2014	1,3405	1,3361	1,3433	1,3344
07.08.2014	1,3361	1,3382	1,3394	1,3337
06.08.2014	1,3382	1,3373	1,3389	1,3333
05.08.2014	1,3372	1,3423	1,3425	1,3358
04.08.2014	1,3423	1,3426	1,3431	1,3409
03.08.2014	1,3428	1,3429	1,3434	1,3423
01.08.2014	1,3431	1,3389	1,3445	1,3379
31.07.2014	1,3389	1,3397	1,3401	1,3372
30.07.2014	1,3396	1,3409	1,3415	1,3367
29.07.2014	1,341	1,344	1,3445	1,3404
28.07.2014	1,344	1,3432	1,3444	1,3427
27.07.2014	1,343	1,3432	1,3441	1,3429
25.07.2014	1,3436	1,3462	1,3476	1,3421
24.07.2014	1,3464	1,3462	1,3485	1,3438
23.07.2014	1,3464	1,3466	1,3474	1,3455
22.07.2014	1,3467	1,3524	1,353	1,3459
21.07.2014	1,3523	1,3529	1,355	1,3513
20.07.2014	1,3531	1,3529	1,3531	1,3523
18.07.2014	1,3532	1,3527	1,3537	1,3491
17.07.2014	1,3527	1,3524	1,354	1,3517
16.07.2014	1,3526	1,3568	1,3572	1,3521
15.07.2014	1,3569	1,362	1,3628	1,3562
14.07.2014	1,362	1,3606	1,364	1,3598
13.07.2014	1,3607	1,3608	1,3608	1,3598
11.07.2014	1,3608	1,3609	1,3625	1,3592
10.07.2014	1,3608	1,3641	1,3651	1,3589
09.07.2014	1,3641	1,3612	1,3649	1,3602
08.07.2014	1,3614	1,3606	1,3617	1,3588
07.07.2014	1,3606	1,3593	1,3609	1,3576
06.07.2014	1,3594	1,3597	1,3601	1,3593
04.07.2014	1,3612	1,361	1,3612	1,3586
03.07.2014	1,3609	1,3657	1,3664	1,3596
02.07.2014	1,3657	1,3679	1,3683	1,3642
01.07.2014	1,368	1,3693	1,3701	1,3676
30.06.2014	1,3694	1,3647	1,3698	1,364
29.06.2014	1,3644	1,3644	1,3648	1,3634
27.06.2014	1,363	1,3612	1,3651	1,361
26.06.2014	1,3613	1,3631	1,3642	1,3576
25.06.2014	1,363	1,3604	1,3651	1,36
24.06.2014	1,3604	1,3603	1,3628	1,3584
23.06.2014	1,3604	1,3594	1,3614	1,3574
22.06.2014	1,3592	1,3599	1,3599	1,3586
20.06.2014	1,3583	1,3607	1,3634	1,3564
19.06.2014	1,3607	1,359	1,3644	1,3584
18.06.2014	1,359	1,3547	1,36	1,3542
17.06.2014	1,3547	1,3573	1,3587	1,3536
16.06.2014	1,3572	1,3537	1,3579	1,3513
15.06.2014	1,3538	1,3544	1,3544	1,3534
13.06.2014	1,3533	1,355	1,3579	1,3517
12.06.2014	1,355	1,3534	1,3572	1,3512
11.06.2014	1,3533	1,3546	1,3557	1,3522
10.06.2014	1,3546	1,3593	1,3602	1,3534
09.06.2014	1,3593	1,3645	1,3669	1,3583
08.06.2014	1,3646	1,3671	1,3671	1,3641
06.06.2014	1,364	1,3662	1,3677	1,3621
05.06.2014	1,3664	1,36	1,367	1,3503
04.06.2014	1,3601	1,3627	1,3639	1,3597
03.06.2014	1,363	1,3597	1,3648	1,3587
02.06.2014	1,3599	1,3631	1,3636	1,3588
01.06.2014	1,3634	1,3635	1,3643	1,3631
30.05.2014	1,3637	1,3601	1,365	1,3599
29.05.2014	1,3603	1,3594	1,3626	1,3586
28.05.2014	1,3593	1,3635	1,3638	1,3589
27.05.2014	1,3634	1,3645	1,3669	1,3613
26.05.2014	1,3644	1,3625	1,3655	1,3616
25.05.2014	1,3625	1,3623	1,3633	1,3615
23.05.2014	1,3635	1,3656	1,3657	1,3616
22.05.2014	1,3656	1,3686	1,3688	1,3645
21.05.2014	1,3687	1,3701	1,3723	1,3635
20.05.2014	1,37	1,3709	1,3714	1,3678
19.05.2014	1,3709	1,3698	1,3734	1,3695
18.05.2014	1,3699	1,3696	1,3706	1,3691
16.05.2014	1,3694	1,3711	1,3727	1,3685
15.05.2014	1,3709	1,3714	1,3732	1,3648
14.05.2014	1,3714	1,3704	1,3731	1,3698
13.05.2014	1,3704	1,3759	1,3772	1,3689
12.05.2014	1,3759	1,3758	1,3775	1,375
11.05.2014	1,3758	1,3755	1,3762	1,3751
09.05.2014	1,3783	1,3843	1,3845	1,3745
08.05.2014	1,3835	1,3911	1,3994	1,3833
07.05.2014	1,3912	1,3927	1,3939	1,391
06.05.2014	1,3926	1,3875	1,3951	1,3872
05.05.2014	1,3875	1,3872	1,3886	1,3865
04.05.2014	1,3872	1,3874	1,3888	1,3872
02.05.2014	1,3883	1,3869	1,3883	1,3812
01.05.2014	1,3867	1,3867	1,3889	1,3863
30.04.2014	1,3865	1,3812	1,3877	1,3773
29.04.2014	1,3812	1,385	1,3879	1,3806
28.04.2014	1,3849	1,3839	1,388	1,3815
27.04.2014	1,3842	1,3837	1,3846	1,3835
25.04.2014	1,3843	1,3832	1,3848	1,3827
24.04.2014	1,3832	1,3817	1,3844	1,3792
23.04.2014	1,3817	1,3808	1,3855	1,38
22.04.2014	1,3806	1,3795	1,3825	1,3785
21.04.2014	1,3794	1,3816	1,3831	1,3787
20.04.2014	1,3816	1,3809	1,3818	1,3809
18.04.2014	1,3833	1,3813	1,3833	1,3808
17.04.2014	1,3814	1,3816	1,3865	1,3811
16.04.2014	1,3816	1,3813	1,3851	1,3804
15.04.2014	1,3814	1,3819	1,3834	1,379
14.04.2014	1,3819	1,3854	1,3863	1,3808
13.04.2014	1,3856	1,3834	1,3858	1,3822
11.04.2014	1,3878	1,3886	1,3906	1,3864
10.04.2014	1,3888	1,3854	1,3899	1,3836
09.04.2014	1,3854	1,3796	1,3862	1,378
08.04.2014	1,3795	1,3742	1,3812	1,3737
07.04.2014	1,3742	1,37	1,3749	1,3696
06.04.2014	1,37	1,3703	1,3705	1,3693
04.04.2014	1,37	1,3718	1,3732	1,3673
03.04.2014	1,3718	1,3764	1,3807	1,3698
02.04.2014	1,3765	1,3793	1,382	1,3753
01.04.2014	1,3794	1,3774	1,3816	1,3769
31.03.2014	1,3775	1,3753	1,3809	1,3722
30.03.2014	1,3753	1,3758	1,3767	1,3751
28.03.2014	1,3751	1,3743	1,3773	1,3705
27.03.2014	1,3745	1,3783	1,3797	1,3729
26.03.2014	1,3786	1,3826	1,3826	1,3777
25.03.2014	1,3826	1,3837	1,3847	1,3749
24.03.2014	1,3837	1,3794	1,3876	1,3761
23.03.2014	1,3792	1,3801	1,3807	1,3788
21.03.2014	1,3795	1,3779	1,3812	1,3766
20.03.2014	1,378	1,3824	1,3845	1,3749
19.03.2014	1,3819	1,3933	1,3933	1,381
18.03.2014	1,3934	1,3925	1,3943	1,388
17.03.2014	1,3922	1,3907	1,3948	1,3879
16.03.2014	1,3905	1,3901	1,3917	1,3894
14.03.2014	1,3906	1,3868	1,3938	1,3848
13.03.2014	1,3876	1,3906	1,3967	1,3845
12.03.2014	1,3903	1,3856	1,3915	1,3843
11.03.2014	1,3859	1,3876	1,3878	1,3834
10.03.2014	1,3879	1,3877	1,3898	1,3862
09.03.2014	1,3876	1,3873	1,3877	1,3867
07.03.2014	1,3865	1,3862	1,3915	1,3852
06.03.2014	1,3861	1,3733	1,3873	1,3721
05.03.2014	1,3736	1,3739	1,3749	1,3708
04.03.2014	1,374	1,3736	1,3782	1,3721
03.03.2014	1,3737	1,3777	1,3793	1,3726
02.03.2014	1,3773	1,3767	1,3786	1,3754
28.02.2014	1,3817	1,3707	1,3825	1,3694
27.02.2014	1,3708	1,3682	1,3727	1,3643
26.02.2014	1,3683	1,3745	1,3757	1,3662
25.02.2014	1,3744	1,3733	1,3767	1,3716
24.02.2014	1,3735	1,374	1,3771	1,3708
23.02.2014	1,3737	1,3729	1,3741	1,3729
21.02.2014	1,3734	1,3719	1,3758	1,3702
20.02.2014	1,3721	1,3734	1,3763	1,3686
19.02.2014	1,3734	1,376	1,3773	1,3725
18.02.2014	1,3759	1,3706	1,377	1,3695
17.02.2014	1,3708	1,3703	1,3724	1,3692
16.02.2014	1,3701	1,3701	1,3715	1,37
14.02.2014	1,3685	1,3678	1,3715	1,3673
13.02.2014	1,3679	1,3595	1,3692	1,3585
12.02.2014	1,3597	1,3638	1,3653	1,3562
11.02.2014	1,3636	1,3645	1,3683	1,3629
10.02.2014	1,3648	1,3623	1,3652	1,3618
09.02.2014	1,3622	1,363	1,363	1,3609
07.02.2014	1,3636	1,3589	1,3645	1,3552
06.02.2014	1,3593	1,3534	1,3619	1,3483
05.02.2014	1,3534	1,3513	1,3555	1,3499
04.02.2014	1,3515	1,3526	1,3539	1,3493
03.02.2014	1,3527	1,349	1,3536	1,3477
02.02.2014	1,3491	1,3486	1,3491	1,348
31.01.2014	1,3485	1,3554	1,3573	1,3479
30.01.2014	1,3557	1,3656	1,3664	1,3544
29.01.2014	1,3661	1,3657	1,3685	1,3603
28.01.2014	1,3651	1,3673	1,3689	1,3629
27.01.2014	1,3673	1,3682	1,3717	1,3653
26.01.2014	1,3683	1,3676	1,3685	1,3672
24.01.2014	1,3681	1,3697	1,3739	1,3663
23.01.2014	1,3692	1,3546	1,3699	1,353
22.01.2014	1,3544	1,3559	1,3583	1,3535
21.01.2014	1,3559	1,3556	1,3569	1,3516
20.01.2014	1,3556	1,3532	1,3568	1,3508
19.01.2014	1,3534	1,3543	1,3545	1,3531
17.01.2014	1,354	1,3618	1,3621	1,3517
16.01.2014	1,3616	1,3605	1,365	1,3583
15.01.2014	1,3605	1,3674	1,3675	1,3582
14.01.2014	1,3672	1,367	1,3699	1,3649
13.01.2014	1,3668	1,3667	1,3685	1,3637
12.01.2014	1,3672	1,3676	1,3681	1,3667
10.01.2014	1,367	1,3604	1,3687	1,3572
09.01.2014	1,3602	1,3576	1,3633	1,3548
08.01.2014	1,3575	1,3616	1,3635	1,3554
07.01.2014	1,3614	1,363	1,3657	1,3597
06.01.2014	1,3633	1,3592	1,3654	1,3572
05.01.2014	1,3595	1,3591	1,3598	1,359
03.01.2014	1,3588	1,3666	1,3672	1,3583
02.01.2014	1,3661	1,3765	1,3775	1,363
31.12.2013	1,3756	1,3798	1,3812	1,3742
30.12.2013	1,3794	1,3754	1,3819	1,3729
29.12.2013	1,3767	1,3753	1,3769	1,3749
27.12.2013	1,3749	1,3692	1,3894	1,3689
26.12.2013	1,3691	1,368	1,3703	1,3665
25.12.2013	1,3683	1,3677	1,3724	1,3647
24.12.2013	1,3676	1,3696	1,37	1,3655
23.12.2013	1,3695	1,3675	1,3717	1,3673
22.12.2013	1,3673	1,3675	1,3678	1,3668
20.12.2013	1,3673	1,3654	1,3709	1,3625
19.12.2013	1,366	1,3673	1,3694	1,365
18.12.2013	1,3674	1,377	1,3812	1,3673
17.12.2013	1,3771	1,3762	1,3782	1,3723
16.12.2013	1,376	1,3739	1,3799	1,3737
15.12.2013	1,3737	1,3731	1,3738	1,3723
13.12.2013	1,3743	1,3748	1,3769	1,3709
12.12.2013	1,3746	1,3786	1,3803	1,3738
11.12.2013	1,3787	1,3761	1,3811	1,3741
10.12.2013	1,3758	1,3738	1,3795	1,3735
09.12.2013	1,3737	1,3714	1,3746	1,3694
08.12.2013	1,3713	1,3707	1,3721	1,3701
06.12.2013	1,3704	1,3671	1,3705	1,3621
05.12.2013	1,3672	1,3589	1,3678	1,3543
04.12.2013	1,3591	1,3584	1,3606	1,3528
03.12.2013	1,3591	1,3541	1,3614	1,3524
02.12.2013	1,3537	1,3583	1,3616	1,3526
01.12.2013	1,359	1,3588	1,3593	1,3581
29.11.2013	1,3589	1,3602	1,3622	1,3581
28.11.2013	1,3603	1,3575	1,3619	1,3564
27.11.2013	1,3575	1,3567	1,3613	1,3558
26.11.2013	1,3574	1,3521	1,3575	1,3521
25.11.2013	1,3524	1,3553	1,356	1,349
24.11.2013	1,3554	1,3551	1,3555	1,3546
22.11.2013	1,3554	1,3476	1,3557	1,3462
21.11.2013	1,3478	1,3436	1,3487	1,34
20.11.2013	1,344	1,3535	1,3579	1,3416
19.11.2013	1,3536	1,3506	1,3547	1,3488
18.11.2013	1,3507	1,3486	1,3542	1,3475
17.11.2013	1,3495	1,3494	1,3499	1,3491
15.11.2013	1,3497	1,3456	1,3506	1,3432
14.11.2013	1,3458	1,3484	1,3494	1,3419
13.11.2013	1,3485	1,3434	1,3497	1,339
12.11.2013	1,3433	1,3405	1,3456	1,3359
11.11.2013	1,3406	1,3349	1,3416	1,3345
10.11.2013	1,3354	1,3354	1,3364	1,3352
08.11.2013	1,3371	1,3415	1,3438	1,3318
07.11.2013	1,3415	1,3515	1,3529	1,3295
06.11.2013	1,3516	1,3474	1,3548	1,3468
05.11.2013	1,3472	1,3513	1,3522	1,3449
04.11.2013	1,3509	1,349	1,3525	1,3442
03.11.2013	1,3496	1,3488	1,3497	1,3484
01.11.2013	1,3485	1,3589	1,3589	1,348
31.10.2013	1,3586	1,3727	1,3739	1,3576
30.10.2013	1,3737	1,3747	1,3785	1,3696
29.10.2013	1,3748	1,3786	1,3813	1,3737
28.10.2013	1,3787	1,3809	1,3817	1,3775
27.10.2013	1,3808	1,3808	1,3812	1,3798
25.10.2013	1,3803	1,3797	1,3832	1,3774
24.10.2013	1,3798	1,3777	1,3825	1,3765
23.10.2013	1,3775	1,378	1,3793	1,3742
22.10.2013	1,3781	1,3679	1,3792	1,3662
21.10.2013	1,3678	1,3684	1,3689	1,3651
20.10.2013	1,3686	1,3685	1,3689	1,3681
18.10.2013	1,3687	1,3672	1,3704	1,3659
17.10.2013	1,3671	1,353	1,3682	1,3516
16.10.2013	1,3535	1,3526	1,3568	1,3473
15.10.2013	1,3529	1,3557	1,3571	1,348
14.10.2013	1,3561	1,3552	1,3598	1,3546
13.10.2013	1,356	1,3549	1,3566	1,3549
11.10.2013	1,3541	1,3526	1,3582	1,352
10.10.2013	1,3521	1,3524	1,3547	1,3488
09.10.2013	1,3523	1,3575	1,3605	1,3486
08.10.2013	1,3573	1,3576	1,3607	1,3558
07.10.2013	1,3577	1,3565	1,3591	1,3543
06.10.2013	1,3565	1,3554	1,3572	1,3552
04.10.2013	1,3558	1,3622	1,3632	1,3539
03.10.2013	1,3623	1,3582	1,3646	1,3578
02.10.2013	1,3581	1,3524	1,3607	1,3505
01.10.2013	1,3523	1,3524	1,3588	1,3517
30.09.2013	1,3522	1,3491	1,3556	1,3478
29.09.2013	1,3487	1,3494	1,3499	1,3478
27.09.2013	1,3523	1,349	1,3565	1,3474
26.09.2013	1,3488	1,3522	1,3526	1,3472
25.09.2013	1,3525	1,3473	1,3537	1,3462
24.09.2013	1,3472	1,3493	1,3519	1,3464
23.09.2013	1,3495	1,3532	1,3545	1,348
22.09.2013	1,3533	1,3551	1,3553	1,3526
20.09.2013	1,3525	1,3534	1,3549	1,3498
19.09.2013	1,3532	1,3503	1,3569	1,3501
18.09.2013	1,3511	1,3358	1,3542	1,3338
17.09.2013	1,3358	1,3335	1,337	1,3325
16.09.2013	1,3335	1,3371	1,3386	1,3331
15.09.2013	1,3377	1,3296	1,3378	1,3296
13.09.2013	1,3296	1,33	1,3322	1,3254
12.09.2013	1,3298	1,3312	1,3325	1,3256
11.09.2013	1,3311	1,3264	1,3325	1,3244
10.09.2013	1,3265	1,3254	1,3276	1,323
09.09.2013	1,3253	1,3173	1,3281	1,3165
08.09.2013	1,3171	1,3178	1,3179	1,316
06.09.2013	1,3187	1,3119	1,3189	1,3105
05.09.2013	1,3117	1,3206	1,3223	1,3111
04.09.2013	1,3204	1,3169	1,3218	1,3157
03.09.2013	1,3165	1,3194	1,3197	1,3139
02.09.2013	1,3197	1,3211	1,3227	1,3184
01.09.2013	1,3209	1,323	1,3237	1,3204
30.08.2013	1,3223	1,3242	1,3255	1,3174
29.08.2013	1,3237	1,3341	1,3343	1,3219
28.08.2013	1,334	1,3389	1,3398	1,3305
27.08.2013	1,339	1,3371	1,3399	1,3323
26.08.2013	1,3372	1,3384	1,3394	1,3357
25.08.2013	1,3389	1,3383	1,3394	1,3378
23.08.2013	1,3384	1,3357	1,341	1,3334
22.08.2013	1,3357	1,3355	1,3373	1,3298
21.08.2013	1,3356	1,3417	1,3427	1,3335
20.08.2013	1,3419	1,3335	1,3452	1,3323
19.08.2013	1,3335	1,3332	1,3375	1,3315
18.08.2013	1,3343	1,333	1,3343	1,3323
16.08.2013	1,333	1,335	1,338	1,3311
15.08.2013	1,3354	1,3257	1,3363	1,3206
14.08.2013	1,3258	1,3262	1,3281	1,3239
13.08.2013	1,326	1,3301	1,3317	1,3234
12.08.2013	1,3298	1,3335	1,3344	1,3277
11.08.2013	1,3334	1,3343	1,3343	1,3314
09.08.2013	1,3344	1,3381	1,3391	1,3333
08.08.2013	1,338	1,3337	1,34	1,3328
07.08.2013	1,3336	1,3306	1,3345	1,3266
06.08.2013	1,3306	1,3259	1,3323	1,3246
05.08.2013	1,3259	1,328	1,33	1,3233
04.08.2013	1,328	1,3277	1,3291	1,3274
02.08.2013	1,3277	1,321	1,3294	1,3189
01.08.2013	1,3211	1,3298	1,3311	1,3194
31.07.2013	1,3299	1,3264	1,3345	1,3209
30.07.2013	1,3264	1,3263	1,3302	1,3235
29.07.2013	1,3263	1,328	1,3295	1,3239
28.07.2013	1,3279	1,3278	1,3289	1,3278
26.07.2013	1,3278	1,3277	1,3297	1,3253
25.07.2013	1,3277	1,3198	1,3296	1,3166
24.07.2013	1,3199	1,3222	1,3256	1,3177
23.07.2013	1,3222	1,3185	1,3239	1,3164
22.07.2013	1,3187	1,3143	1,3218	1,3138
21.07.2013	1,3138	1,3143	1,3152	1,3134
19.07.2013	1,3143	1,3112	1,3154	1,3089
18.07.2013	1,3112	1,3121	1,3126	1,3067
17.07.2013	1,3125	1,3155	1,3178	1,3083
16.07.2013	1,3151	1,3067	1,3174	1,3052
15.07.2013	1,3066	1,306	1,3079	1,2993
14.07.2013	1,3066	1,3068	1,3085	1,3059
12.07.2013	1,3068	1,3093	1,31	1,2999
11.07.2013	1,3096	1,3009	1,3207	1,3006
10.07.2013	1,3017	1,2784	1,3024	1,2765
09.07.2013	1,2787	1,287	1,2898	1,2755
08.07.2013	1,2866	1,2827	1,2882	1,2812
07.07.2013	1,2815	1,283	1,2833	1,2811
05.07.2013	1,2829	1,2916	1,2916	1,2806
04.07.2013	1,2913	1,3009	1,3023	1,2883
03.07.2013	1,3009	1,2983	1,3032	1,2923
02.07.2013	1,2981	1,306	1,3078	1,2964
01.07.2013	1,3062	1,3011	1,3071	1,3006
30.06.2013	1,3013	1,3015	1,3027	1,3005
28.06.2013	1,3015	1,3035	1,3103	1,2991
27.06.2013	1,3038	1,3007	1,3057	1,3
26.06.2013	1,3007	1,3083	1,3087	1,2985
25.06.2013	1,3084	1,3124	1,3151	1,3065
24.06.2013	1,3123	1,3107	1,3144	1,3059
23.06.2013	1,31	1,3123	1,3123	1,3087
21.06.2013	1,3123	1,3225	1,3254	1,3099
20.06.2013	1,3229	1,3298	1,3302	1,3161
19.06.2013	1,3293	1,3395	1,3418	1,3262
18.06.2013	1,3395	1,3362	1,3416	1,3326
17.06.2013	1,3363	1,3348	1,3381	1,3319
16.06.2013	1,3349	1,3347	1,335	1,3343
14.06.2013	1,3346	1,3371	1,3373	1,3295
13.06.2013	1,3373	1,3336	1,339	1,3279
12.06.2013	1,3337	1,3313	1,3359	1,3266
11.06.2013	1,3314	1,3256	1,3318	1,3232
10.06.2013	1,3257	1,3205	1,3269	1,3178
09.06.2013	1,3193	1,3205	1,321	1,3186
07.06.2013	1,3219	1,324	1,3286	1,3192
06.06.2013	1,324	1,3092	1,3306	1,3075
05.06.2013	1,3093	1,3082	1,3116	1,3053
04.06.2013	1,3083	1,3068	1,3102	1,3042
03.06.2013	1,3072	1,2996	1,3108	1,2956
31.05.2013	1,2998	1,3044	1,306	1,2944
30.05.2013	1,3049	1,294	1,3062	1,2933
29.05.2013	1,2944	1,2853	1,2977	1,2838
28.05.2013	1,2852	1,2934	1,295	1,285
27.05.2013	1,2934	1,2936	1,2949	1,2915
26.05.2013	1,2937	1,2933	1,294	1,2926
24.05.2013	1,2935	1,2933	1,2993	1,2904
23.05.2013	1,2933	1,2854	1,2957	1,2822
22.05.2013	1,2854	1,2906	1,2998	1,2834
21.05.2013	1,2906	1,2884	1,2934	1,2841
20.05.2013	1,2885	1,2846	1,2901	1,2819
19.05.2013	1,2847	1,2828	1,2848	1,2822
17.05.2013	1,2839	1,2884	1,289	1,2797
16.05.2013	1,2886	1,2881	1,293	1,2846
15.05.2013	1,2878	1,2932	1,2943	1,2843
14.05.2013	1,2931	1,2982	1,3029	1,2918
13.05.2013	1,2981	1,2978	1,2999	1,2941
12.05.2013	1,2976	1,2969	1,2979	1,2946
10.05.2013	1,2991	1,3045	1,3051	1,2936
09.05.2013	1,3039	1,3157	1,3177	1,3011
08.05.2013	1,3158	1,3079	1,3194	1,3072
07.05.2013	1,3077	1,3073	1,3132	1,3068
06.05.2013	1,3075	1,3119	1,3141	1,3054
05.05.2013	1,3118	1,3115	1,3125	1,3112
03.05.2013	1,3116	1,3063	1,3159	1,3033
02.05.2013	1,3062	1,3184	1,3218	1,3038
01.05.2013	1,3183	1,3167	1,3243	1,3161
30.04.2013	1,3164	1,3093	1,3186	1,3054
29.04.2013	1,3095	1,306	1,3117	1,3032
28.04.2013	1,3065	1,3032	1,3068	1,3028
26.04.2013	1,3032	1,3009	1,3048	1,2991
25.04.2013	1,3012	1,3013	1,3094	1,2989
24.04.2013	1,3014	1,3001	1,3034	1,2955
23.04.2013	1,3002	1,3062	1,3084	1,2972
22.04.2013	1,3062	1,3071	1,3085	1,3015
21.04.2013	1,3066	1,3053	1,3094	1,3053
19.04.2013	1,3052	1,3054	1,3129	1,3047
18.04.2013	1,305	1,3034	1,3097	1,3021
17.04.2013	1,3036	1,3181	1,32	1,3002
16.04.2013	1,318	1,3049	1,3202	1,3028
15.04.2013	1,3048	1,3099	1,3108	1,3022
12.04.2013	1,3112	1,3111	1,313	1,3037
11.04.2013	1,3107	1,3062	1,3138	1,3044
10.04.2013	1,3067	1,3082	1,3122	1,3053
09.04.2013	1,3081	1,3018	1,3103	1,3005
08.04.2013	1,3019	1,2997	1,3038	1,2968
05.04.2013	1,2992	1,2928	1,304	1,2901
04.04.2013	1,2933	1,2845	1,2949	1,2745
03.04.2013	1,2843	1,282	1,2865	1,279
02.04.2013	1,2822	1,2847	1,2878	1,281
01.04.2013	1,2844	1,2806	1,2868	1,2771
29.03.2013	1,2821	1,2814	1,2837	1,2792
28.03.2013	1,2815	1,278	1,2845	1,2755
27.03.2013	1,2779	1,2866	1,2867	1,2751
26.03.2013	1,2864	1,2861	1,289	1,2828
25.03.2013	1,286	1,3028	1,3049	1,283
22.03.2013	1,2993	1,2906	1,301	1,2888
21.03.2013	1,2898	1,2936	1,2956	1,288
20.03.2013	1,2933	1,2868	1,2979	1,2864
19.03.2013	1,2858	1,2945	1,297	1,2844
18.03.2013	1,2943	1,2904	1,2996	1,2882
15.03.2013	1,3077	1,3007	1,3107	1,3003
14.03.2013	1,3013	1,2961	1,3033	1,2911
13.03.2013	1,2957	1,3027	1,3065	1,2923
12.03.2013	1,3028	1,3029	1,3075	1,2991
11.03.2013	1,3035	1,2987	1,3054	1,2987
08.03.2013	1,3006	1,3102	1,3135	1,2955
07.03.2013	1,3106	1,2976	1,3118	1,2975
06.03.2013	1,2978	1,3049	1,3071	1,2966
05.03.2013	1,3046	1,3033	1,3075	1,301
04.03.2013	1,3026	1,3022	1,303	1,2982
01.03.2013	1,3019	1,3066	1,3101	1,2967
28.02.2013	1,3068	1,3147	1,3158	1,3053
27.02.2013	1,3136	1,3062	1,3147	1,3041
26.02.2013	1,3065	1,3083	1,3123	1,3018
25.02.2013	1,3054	1,3187	1,3319	1,3048
22.02.2013	1,3192	1,3194	1,3245	1,3145
21.02.2013	1,3193	1,3281	1,3289	1,3161
20.02.2013	1,3288	1,3405	1,3434	1,3271
19.02.2013	1,3386	1,3343	1,3396	1,3329
18.02.2013	1,3353	1,3345	1,338	1,3322
15.02.2013	1,3362	1,3354	1,3393	1,3306
14.02.2013	1,3357	1,3447	1,3456	1,3315
13.02.2013	1,3449	1,345	1,352	1,3426
12.02.2013	1,3453	1,3403	1,3476	1,3364
11.02.2013	1,3402	1,3371	1,3428	1,3357
08.02.2013	1,3366	1,3393	1,3429	1,3353
07.02.2013	1,3395	1,3523	1,3577	1,3371
06.02.2013	1,3518	1,3576	1,3596	1,3494
05.02.2013	1,3583	1,3509	1,3597	1,3459
04.02.2013	1,3503	1,3643	1,3649	1,3499
01.02.2013	1,3641	1,3607	1,3711	1,3586
31.01.2013	1,3588	1,3572	1,3594	1,3541
30.01.2013	1,3569	1,3486	1,3587	1,3482
29.01.2013	1,3488	1,3446	1,3497	1,3414
28.01.2013	1,3446	1,346	1,3477	1,3425
25.01.2013	1,346	1,3372	1,3479	1,335
24.01.2013	1,338	1,3302	1,3393	1,3286
23.01.2013	1,331	1,3313	1,3355	1,3265
22.01.2013	1,3322	1,3306	1,3372	1,3267
21.01.2013	1,3316	1,3309	1,3332	1,33
18.01.2013	1,3321	1,3373	1,3398	1,328
17.01.2013	1,3375	1,3283	1,3388	1,327
16.01.2013	1,3292	1,3313	1,3325	1,3257
15.01.2013	1,3298	1,3379	1,3394	1,3264
14.01.2013	1,3377	1,3359	1,3404	1,3336
11.01.2013	1,3342	1,327	1,3366	1,3248
10.01.2013	1,3268	1,3055	1,328	1,3039
09.01.2013	1,3055	1,3089	1,3096	1,3037
08.01.2013	1,3081	1,3123	1,314	1,3056
07.01.2013	1,3126	1,3061	1,3128	1,3017
04.01.2013	1,3069	1,3036	1,3089	1,2998
03.01.2013	1,3039	1,3188	1,3189	1,3024
02.01.2013	1,319	1,3195	1,33	1,3157
01.01.2013	1,3207	1,3204	1,322	1,3196
31.12.2012	1,3195	1,3229	1,3234	1,3172
28.12.2012	1,3218	1,3246	1,3257	1,3166
27.12.2012	1,3235	1,3235	1,3284	1,3202
26.12.2012	1,3222	1,3187	1,3254	1,3171
25.12.2012	1,318	1,3181	1,3208	1,3132
24.12.2012	1,3184	1,3173	1,3234	1,3172
21.12.2012	1,3188	1,3226	1,3232	1,3159
20.12.2012	1,3246	1,3218	1,3295	1,3203
19.12.2012	1,32	1,3227	1,3309	1,3189
18.12.2012	1,3225	1,3163	1,3238	1,3156
17.12.2012	1,316	1,316	1,3179	1,3144
14.12.2012	1,3166	1,3071	1,3173	1,3067
13.12.2012	1,3076	1,3076	1,31	1,3041
12.12.2012	1,3071	1,3004	1,3097	1,2996
11.12.2012	1,3009	1,2945	1,3015	1,2929
10.12.2012	1,2941	1,2909	1,2947	1,2886
07.12.2012	1,2928	1,2966	1,2973	1,2877
06.12.2012	1,2958	1,3073	1,3087	1,2951
05.12.2012	1,3071	1,3113	1,3127	1,306
04.12.2012	1,3094	1,3053	1,3109	1,3046
03.12.2012	1,306	1,2999	1,3076	1,2994
30.11.2012	1,2988	1,2972	1,3028	1,2968
29.11.2012	1,2977	1,2945	1,3014	1,2939
28.11.2012	1,2951	1,2938	1,2962	1,288
27.11.2012	1,2938	1,2984	1,3009	1,2916
26.11.2012	1,2994	1,2972	1,3008	1,2944
23.11.2012	1,2983	1,287	1,2991	1,287
22.11.2012	1,288	1,2853	1,2899	1,2834
21.11.2012	1,2827	1,2813	1,2833	1,2736
20.11.2012	1,2814	1,2778	1,283	1,2775
19.11.2012	1,2781	1,275	1,282	1,2746
16.11.2012	1,2743	1,2783	1,2784	1,2691
15.11.2012	1,2781	1,2729	1,2802	1,2718
14.11.2012	1,2733	1,2715	1,2779	1,2704
13.11.2012	1,2702	1,2706	1,2729	1,2662
12.11.2012	1,2708	1,2719	1,2739	1,2698
09.11.2012	1,2711	1,274	1,279	1,269
08.11.2012	1,2744	1,2754	1,2777	1,2717
07.11.2012	1,2771	1,2807	1,2876	1,2736
06.11.2012	1,281	1,2794	1,2827	1,2764
05.11.2012	1,2797	1,2825	1,2843	1,2768
02.11.2012	1,2836	1,2934	1,2939	1,2821
01.11.2012	1,2947	1,2968	1,2983	1,2925
31.10.2012	1,2959	1,2964	1,3021	1,2947
30.10.2012	1,2967	1,2907	1,2984	1,2886
29.10.2012	1,2904	1,2928	1,2936	1,2885
26.10.2012	1,2938	1,2937	1,2956	1,2883
25.10.2012	1,2943	1,2967	1,3023	1,2927
24.10.2012	1,297	1,2978	1,2997	1,2921
23.10.2012	1,2985	1,3066	1,3076	1,2952
22.10.2012	1,3066	1,3022	1,3084	1,3015
19.10.2012	1,3022	1,3076	1,3077	1,3013
18.10.2012	1,3068	1,3111	1,3129	1,3056
17.10.2012	1,3116	1,3098	1,314	1,3085
16.10.2012	1,3098	1,2953	1,3099	1,2953
15.10.2012	1,2947	1,2945	1,2979	1,2891
12.10.2012	1,2953	1,2927	1,2992	1,2923
11.10.2012	1,2931	1,2858	1,2952	1,2826
10.10.2012	1,2852	1,2866	1,2913	1,2836
09.10.2012	1,2885	1,2967	1,2991	1,2859
08.10.2012	1,2967	1,3013	1,3016	1,2938
05.10.2012	1,3033	1,3016	1,3072	1,2994
04.10.2012	1,3017	1,2918	1,3032	1,291
03.10.2012	1,291	1,2907	1,2937	1,2878
02.10.2012	1,2917	1,2888	1,2968	1,288
01.10.2012	1,2887	1,281	1,2939	1,2804
28.09.2012	1,2859	1,2913	1,296	1,2839
27.09.2012	1,2915	1,2873	1,2929	1,2829
26.09.2012	1,2874	1,29	1,2913	1,2836
25.09.2012	1,2904	1,2931	1,2971	1,2886
24.09.2012	1,2931	1,2976	1,298	1,2891
21.09.2012	1,2979	1,2975	1,3048	1,2956
20.09.2012	1,2966	1,3051	1,3059	1,292
19.09.2012	1,3046	1,3045	1,3085	1,2993
18.09.2012	1,3045	1,3111	1,3115	1,303
17.09.2012	1,3114	1,3111	1,3172	1,3084
14.09.2012	1,313	1,2994	1,3169	1,2985
13.09.2012	1,2987	1,29	1,3002	1,2855
12.09.2012	1,2899	1,2854	1,2937	1,2816
11.09.2012	1,2851	1,2763	1,2871	1,2759
10.09.2012	1,2758	1,2794	1,2804	1,2755
07.09.2012	1,2815	1,2629	1,2817	1,2626
06.09.2012	1,2633	1,2597	1,2652	1,2561
05.09.2012	1,2603	1,2559	1,2625	1,2502
04.09.2012	1,2568	1,2586	1,2628	1,2555
03.09.2012	1,2588	1,2576	1,2611	1,256
31.08.2012	1,2579	1,2509	1,2638	1,2494
30.08.2012	1,2507	1,2535	1,2564	1,2487
29.08.2012	1,2532	1,2565	1,2574	1,2519
28.08.2012	1,2565	1,2503	1,2577	1,2466
27.08.2012	1,2498	1,2515	1,2536	1,249
24.08.2012	1,2512	1,256	1,2567	1,2482
23.08.2012	1,2565	1,2538	1,259	1,2525
22.08.2012	1,2531	1,2467	1,2538	1,2431
21.08.2012	1,2471	1,2352	1,2488	1,2346
20.08.2012	1,2347	1,2334	1,2369	1,2295
17.08.2012	1,2332	1,2359	1,2382	1,2289
16.08.2012	1,2356	1,2287	1,2373	1,2256
15.08.2012	1,2287	1,2325	1,2344	1,2264
14.08.2012	1,2319	1,2334	1,2386	1,2317
13.08.2012	1,2333	1,2284	1,2374	1,2261
10.08.2012	1,229	1,2297	1,2317	1,2242
09.08.2012	1,2304	1,2368	1,2387	1,2267
08.08.2012	1,2365	1,2393	1,2402	1,2327
07.08.2012	1,2398	1,2389	1,2442	1,2376
06.08.2012	1,2399	1,2388	1,2443	1,2342
03.08.2012	1,2388	1,2179	1,2393	1,2167
02.08.2012	1,2183	1,2237	1,2406	1,2134
01.08.2012	1,223	1,2294	1,2337	1,2218
31.07.2012	1,23	1,2258	1,233	1,2249
30.07.2012	1,2256	1,2306	1,2311	1,2225
27.07.2012	1,2318	1,2281	1,239	1,2242
26.07.2012	1,2279	1,2145	1,233	1,2118
25.07.2012	1,2148	1,2067	1,2171	1,2054
24.07.2012	1,2062	1,2116	1,2138	1,2042
23.07.2012	1,2115	1,2126	1,2145	1,2068
20.07.2012	1,2158	1,2274	1,2284	1,2144
19.07.2012	1,2273	1,2278	1,2324	1,2229
18.07.2012	1,2281	1,2287	1,2307	1,2217
17.07.2012	1,2291	1,2268	1,2317	1,2189
16.07.2012	1,227	1,2253	1,229	1,2176
13.07.2012	1,2249	1,2206	1,2257	1,2162
12.07.2012	1,2199	1,2243	1,2247	1,2167
11.07.2012	1,2243	1,2251	1,2297	1,2213
10.07.2012	1,2252	1,2319	1,2334	1,2235
09.07.2012	1,2314	1,2272	1,2324	1,2267
06.07.2012	1,2291	1,2389	1,2402	1,226
05.07.2012	1,2391	1,2524	1,2539	1,2364
04.07.2012	1,2527	1,2605	1,2607	1,2508
03.07.2012	1,2607	1,2578	1,2628	1,2559
02.07.2012	1,2586	1,2665	1,2668	1,2568
29.06.2012	1,2665	1,2438	1,2693	1,2433
28.06.2012	1,2441	1,2473	1,2525	1,2407
27.06.2012	1,2469	1,249	1,2509	1,2446
26.06.2012	1,2492	1,2506	1,2531	1,2442
25.06.2012	1,2502	1,2537	1,2561	1,2471
22.06.2012	1,2572	1,2551	1,2584	1,252
21.06.2012	1,2548	1,2688	1,2699	1,2532
20.06.2012	1,2699	1,2684	1,2743	1,2638
19.06.2012	1,2688	1,2589	1,2731	1,2569
18.06.2012	1,2578	1,2714	1,2728	1,2557
15.06.2012	1,2642	1,2628	1,2665	1,2592
14.06.2012	1,2629	1,2568	1,2638	1,2542
13.06.2012	1,2567	1,2509	1,2611	1,2474
12.06.2012	1,2506	1,2475	1,2529	1,2443
11.06.2012	1,2466	1,2644	1,2647	1,2465
08.06.2012	1,2516	1,257	1,2575	1,2436
07.06.2012	1,2564	1,257	1,2626	1,254
06.06.2012	1,2578	1,2443	1,2586	1,2441
05.06.2012	1,2452	1,2501	1,2542	1,241
04.06.2012	1,2495	1,2412	1,251	1,2386
01.06.2012	1,243	1,2362	1,246	1,2288
31.05.2012	1,236	1,2364	1,2429	1,2337
30.05.2012	1,2369	1,2482	1,2487	1,2362
29.05.2012	1,2487	1,2538	1,2575	1,2461
28.05.2012	1,254	1,2575	1,2625	1,2512
25.05.2012	1,2517	1,2535	1,2603	1,2496
24.05.2012	1,2537	1,2588	1,262	1,2516
23.05.2012	1,2587	1,2668	1,2687	1,2545
22.05.2012	1,268	1,2809	1,2815	1,2659
21.05.2012	1,2808	1,2763	1,2824	1,2725
18.05.2012	1,2778	1,2694	1,2794	1,2642
17.05.2012	1,2682	1,2721	1,275	1,2667
16.05.2012	1,2717	1,2736	1,2759	1,2681
15.05.2012	1,2734	1,283	1,2869	1,2722
14.05.2012	1,2827	1,2898	1,2923	1,2821
11.05.2012	1,2917	1,2934	1,2958	1,2905
10.05.2012	1,2932	1,2938	1,298	1,2925
09.05.2012	1,2935	1,2993	1,3004	1,2912
08.05.2012	1,2999	1,3056	1,3062	1,2983
07.05.2012	1,3059	1,2977	1,3089	1,2962
04.05.2012	1,3085	1,3154	1,3179	1,3081
03.05.2012	1,3153	1,3151	1,318	1,3096
02.05.2012	1,3155	1,3236	1,3241	1,3123
01.05.2012	1,3238	1,3242	1,3284	1,3204
30.04.2012	1,3243	1,324	1,3267	1,3208
27.04.2012	1,3253	1,3187	1,327	1,3157
26.04.2012	1,3191	1,3225	1,3263	1,3181
25.04.2012	1,3223	1,3196	1,3237	1,3174
24.04.2012	1,3195	1,3156	1,3219	1,3145
23.04.2012	1,3157	1,3198	1,3211	1,3105
20.04.2012	1,322	1,3141	1,3228	1,3129
19.04.2012	1,3136	1,312	1,3166	1,3069
18.04.2012	1,3119	1,3126	1,3141	1,3058
17.04.2012	1,3128	1,3132	1,3173	1,3091
16.04.2012	1,3132	1,3072	1,3148	1,2995
13.04.2012	1,3077	1,3184	1,3201	1,307
12.04.2012	1,3187	1,3123	1,3213	1,3102
11.04.2012	1,311	1,3079	1,3157	1,3067
10.04.2012	1,3083	1,3116	1,3145	1,3054
09.04.2012	1,311	1,3075	1,3134	1,3033
06.04.2012	1,3094	1,3059	1,3112	1,3051
05.04.2012	1,3064	1,3142	1,3165	1,3035
04.04.2012	1,314	1,3227	1,3234	1,3107
03.04.2012	1,3236	1,3324	1,3368	1,3214
02.04.2012	1,3316	1,3363	1,338	1,3278
30.03.2012	1,3342	1,3305	1,3377	1,3304
29.03.2012	1,33	1,3319	1,3346	1,3252
28.03.2012	1,3315	1,3325	1,3374	1,3277
27.03.2012	1,3319	1,3357	1,3386	1,3313
26.03.2012	1,3357	1,3281	1,3368	1,3192
23.03.2012	1,3266	1,3204	1,3294	1,3191
22.03.2012	1,3199	1,3221	1,3255	1,3134
21.03.2012	1,3213	1,3246	1,3285	1,3179
20.03.2012	1,323	1,3234	1,3252	1,3173
19.03.2012	1,3234	1,3173	1,3266	1,3142
16.03.2012	1,3166	1,308	1,3187	1,3049
15.03.2012	1,3072	1,3022	1,312	1,3004
14.03.2012	1,3031	1,3069	1,309	1,3011
13.03.2012	1,3082	1,3166	1,3192	1,3052
12.03.2012	1,3156	1,3111	1,316	1,3079
09.03.2012	1,3124	1,3266	1,3272	1,3097
08.03.2012	1,3277	1,314	1,3291	1,3136
07.03.2012	1,3151	1,3119	1,3164	1,3097
06.03.2012	1,3115	1,3221	1,3226	1,3103
05.03.2012	1,3217	1,3196	1,3241	1,316
02.03.2012	1,3198	1,3327	1,3333	1,3187
01.03.2012	1,3316	1,3332	1,3357	1,3282
29.02.2012	1,3324	1,3476	1,3486	1,3315
28.02.2012	1,346	1,3411	1,3472	1,3389
27.02.2012	1,3395	1,3456	1,3466	1,3367
24.02.2012	1,3447	1,3368	1,3486	1,3357
23.02.2012	1,3375	1,3248	1,3379	1,3231
22.02.2012	1,3249	1,3232	1,3267	1,3211
21.02.2012	1,3232	1,3211	1,3293	1,3187
20.02.2012	1,3234	1,3207	1,3277	1,3157
17.02.2012	1,3145	1,3128	1,3198	1,3115
16.02.2012	1,3131	1,3047	1,3157	1,2974
15.02.2012	1,306	1,3128	1,3191	1,3044
14.02.2012	1,3128	1,316	1,3216	1,308
13.02.2012	1,3174	1,3236	1,3284	1,3169
10.02.2012	1,3198	1,3278	1,3291	1,3156
09.02.2012	1,3285	1,3247	1,3322	1,3227
08.02.2012	1,3251	1,3251	1,3289	1,3221
07.02.2012	1,3262	1,3121	1,327	1,3089
06.02.2012	1,3123	1,3111	1,3146	1,3028
03.02.2012	1,3155	1,313	1,3206	1,3066
02.02.2012	1,3146	1,317	1,3197	1,3086
01.02.2012	1,317	1,3083	1,3219	1,3026
31.01.2012	1,309	1,3141	1,3214	1,3042
30.01.2012	1,3141	1,3199	1,322	1,3077
27.01.2012	1,322	1,3091	1,3234	1,3078
26.01.2012	1,3105	1,3104	1,3184	1,3084
25.01.2012	1,3099	1,3039	1,3121	1,2931
24.01.2012	1,3031	1,3022	1,3063	1,2954
23.01.2012	1,3014	1,2889	1,3053	1,2883
20.01.2012	1,2931	1,2963	1,2987	1,2887
19.01.2012	1,2967	1,2866	1,2972	1,2839
18.01.2012	1,2854	1,2745	1,2868	1,2722
17.01.2012	1,2741	1,2673	1,2809	1,2672
16.01.2012	1,265	1,2646	1,2688	1,2626
13.01.2012	1,2675	1,2817	1,2879	1,2624
12.01.2012	1,2814	1,2718	1,2845	1,27
11.01.2012	1,2709	1,2755	1,279	1,2662
10.01.2012	1,2772	1,2778	1,2818	1,2743
09.01.2012	1,2769	1,2681	1,2786	1,2678
06.01.2012	1,2713	1,2792	1,2813	1,2698
05.01.2012	1,2791	1,2938	1,2944	1,2771
04.01.2012	1,2937	1,3052	1,3073	1,2898
03.01.2012	1,3052	1,2945	1,3077	1,2943
02.01.2012	1,2934	1,2946	1,2972	1,2918
30.12.2011	1,2961	1,2951	1,2999	1,2904
29.12.2011	1,2951	1,2895	1,2967	1,2858
28.12.2011	1,2938	1,3068	1,3081	1,2912
27.12.2011	1,3068	1,3053	1,3083	1,305
26.12.2011	1,3055	1,305	1,3084	1,3042
23.12.2011	1,3049	1,3059	1,3096	1,3026
22.12.2011	1,3052	1,3039	1,3119	1,3017
21.12.2011	1,3045	1,3118	1,3198	1,3025
20.12.2011	1,3082	1,3008	1,3132	1,2995
19.12.2011	1,2996	1,3028	1,3044	1,2983
16.12.2011	1,3048	1,3029	1,3084	1,2995
15.12.2011	1,3022	1,2992	1,305	1,2957
14.12.2011	1,2984	1,3038	1,3064	1,2945
13.12.2011	1,3034	1,3177	1,3237	1,301
12.12.2011	1,3167	1,3369	1,3369	1,3163
09.12.2011	1,3386	1,3352	1,3434	1,3282
08.12.2011	1,3343	1,3399	1,3459	1,3289
07.12.2011	1,3416	1,3403	1,3454	1,3351
06.12.2011	1,3403	1,3396	1,3428	1,3334
05.12.2011	1,3396	1,3421	1,3487	1,3376
02.12.2011	1,3394	1,3465	1,3551	1,3363
01.12.2011	1,3462	1,3447	1,3522	1,3417
30.11.2011	1,3441	1,3326	1,3534	1,3259
29.11.2011	1,3333	1,329	1,3442	1,3286
28.11.2011	1,3313	1,3297	1,3399	1,3273
25.11.2011	1,324	1,3327	1,3333	1,3212
24.11.2011	1,3341	1,3359	1,3412	1,3316
23.11.2011	1,3347	1,3521	1,3531	1,332
22.11.2011	1,3517	1,3492	1,3569	1,347
21.11.2011	1,3487	1,3527	1,3541	1,343
18.11.2011	1,3524	1,3459	1,3615	1,3453
17.11.2011	1,347	1,3447	1,354	1,3423
16.11.2011	1,3456	1,3493	1,3557	1,3429
15.11.2011	1,3525	1,3629	1,3641	1,3496
14.11.2011	1,3622	1,3773	1,3779	1,3592
11.11.2011	1,375	1,3603	1,3795	1,3578
10.11.2011	1,361	1,3527	1,3653	1,3484
09.11.2011	1,3524	1,382	1,3859	1,3522
08.11.2011	1,383	1,3759	1,3847	1,3725
07.11.2011	1,3765	1,3799	1,3813	1,3682
04.11.2011	1,3772	1,3823	1,3868	1,3711
03.11.2011	1,3824	1,3679	1,3855	1,3657
02.11.2011	1,3727	1,3683	1,3829	1,3668
01.11.2011	1,3662	1,3842	1,3859	1,3609
31.10.2011	1,3844	1,4141	1,4172	1,3829
28.10.2011	1,4149	1,4177	1,4201	1,4134
27.10.2011	1,4185	1,388	1,4247	1,3869
26.10.2011	1,3896	1,3908	1,3976	1,3799
25.10.2011	1,3909	1,3919	1,396	1,385
24.10.2011	1,3933	1,384	1,3957	1,3822
21.10.2011	1,3896	1,3779	1,3901	1,3704
20.10.2011	1,3777	1,3768	1,3843	1,3657
19.10.2011	1,376	1,3738	1,3869	1,3725
18.10.2011	1,3734	1,3748	1,3817	1,3653
17.10.2011	1,3736	1,3879	1,3914	1,3725
14.10.2011	1,3877	1,3743	1,3894	1,3723
13.10.2011	1,3773	1,3789	1,3826	1,3686
12.10.2011	1,3778	1,3656	1,3834	1,3583
11.10.2011	1,3651	1,3631	1,3684	1,3565
10.10.2011	1,3636	1,3389	1,3699	1,3379
07.10.2011	1,3378	1,3429	1,3525	1,3361
06.10.2011	1,3429	1,3343	1,3451	1,3242
05.10.2011	1,3348	1,3326	1,3384	1,326
04.10.2011	1,3337	1,3188	1,337	1,3146
03.10.2011	1,3192	1,3367	1,3382	1,3164
30.09.2011	1,3388	1,3579	1,3601	1,3384
29.09.2011	1,3583	1,3536	1,3679	1,352
28.09.2011	1,3526	1,3582	1,369	1,3524
27.09.2011	1,3588	1,3517	1,3669	1,3479
26.09.2011	1,3528	1,3521	1,3548	1,3363
23.09.2011	1,3491	1,3477	1,3567	1,3419
22.09.2011	1,3457	1,3585	1,359	1,3386
21.09.2011	1,3588	1,3685	1,3798	1,3559
20.09.2011	1,3702	1,3618	1,3745	1,3594
19.09.2011	1,3675	1,3703	1,3721	1,3587
16.09.2011	1,3794	1,3874	1,3882	1,3754
15.09.2011	1,3883	1,3757	1,3937	1,3704
14.09.2011	1,3742	1,3684	1,3783	1,3591
13.09.2011	1,3679	1,3657	1,374	1,3558
12.09.2011	1,3661	1,3605	1,3695	1,3495
09.09.2011	1,3651	1,3908	1,3937	1,3627
08.09.2011	1,3885	1,4083	1,4089	1,3873
07.09.2011	1,4094	1,4003	1,415	1,4002
06.09.2011	1,4006	1,4073	1,4282	1,3973
05.09.2011	1,4095	1,4152	1,4173	1,4061
02.09.2011	1,4205	1,4269	1,4288	1,4185
01.09.2011	1,4259	1,4374	1,4378	1,4227
31.08.2011	1,438	1,4436	1,4469	1,4359
30.08.2011	1,4439	1,4518	1,4533	1,4385
29.08.2011	1,4515	1,4486	1,4549	1,4466
26.08.2011	1,4498	1,4375	1,4502	1,4329
25.08.2011	1,4374	1,441	1,4475	1,4328
24.08.2011	1,4409	1,443	1,4481	1,438
23.08.2011	1,4435	1,4364	1,45	1,4354
22.08.2011	1,4358	1,4366	1,4434	1,4347
19.08.2011	1,4402	1,4306	1,4453	1,4259
18.08.2011	1,4323	1,4429	1,4452	1,4271
17.08.2011	1,4426	1,439	1,4517	1,4325
16.08.2011	1,44	1,444	1,4472	1,4354
15.08.2011	1,4449	1,4276	1,4477	1,4251
12.08.2011	1,425	1,4218	1,4292	1,415
11.08.2011	1,4238	1,4147	1,4295	1,4103
10.08.2011	1,4163	1,4371	1,4402	1,4162
09.08.2011	1,4392	1,4179	1,4398	1,4152
08.08.2011	1,4164	1,4325	1,4402	1,4129
05.08.2011	1,429	1,4064	1,4298	1,4063
04.08.2011	1,4093	1,4358	1,4369	1,409
03.08.2011	1,4365	1,418	1,437	1,4143
02.08.2011	1,4191	1,4249	1,4283	1,4151
01.08.2011	1,4254	1,4369	1,4454	1,4185
29.07.2011	1,4403	1,4321	1,4413	1,423
28.07.2011	1,4328	1,4371	1,4401	1,4254
27.07.2011	1,4369	1,4507	1,4536	1,4339
26.07.2011	1,4514	1,4371	1,4526	1,4358
25.07.2011	1,4378	1,4375	1,4407	1,4325
22.07.2011	1,4362	1,4407	1,4438	1,4324
21.07.2011	1,442	1,4261	1,4439	1,4139
20.07.2011	1,4222	1,4159	1,424	1,4134
19.07.2011	1,4155	1,4132	1,4217	1,4069
18.07.2011	1,4104	1,4119	1,4148	1,4014
15.07.2011	1,4158	1,4163	1,4199	1,4093
14.07.2011	1,4146	1,4228	1,4282	1,4116
13.07.2011	1,424	1,3977	1,424	1,3962
12.07.2011	1,3973	1,4043	1,4054	1,3837
11.07.2011	1,4048	1,4213	1,426	1,3986
08.07.2011	1,4264	1,436	1,4368	1,4206
07.07.2011	1,4359	1,433	1,4375	1,4221
06.07.2011	1,4316	1,4431	1,4467	1,4287
05.07.2011	1,4423	1,4539	1,4551	1,4398
04.07.2011	1,4541	1,457	1,4578	1,4496
01.07.2011	1,4524	1,4492	1,4552	1,4437
30.06.2011	1,4493	1,4476	1,4538	1,4448
29.06.2011	1,4435	1,4358	1,4448	1,433
28.06.2011	1,4369	1,4306	1,4398	1,4238
27.06.2011	1,4287	1,4173	1,4294	1,4103
24.06.2011	1,4188	1,4275	1,4306	1,4142
23.06.2011	1,4265	1,4319	1,4333	1,4127
22.06.2011	1,4335	1,4376	1,4442	1,4333
21.06.2011	1,4399	1,4343	1,4432	1,4306
20.06.2011	1,4309	1,4286	1,4328	1,4191
17.06.2011	1,4307	1,4207	1,4339	1,4128
16.06.2011	1,4216	1,4181	1,4219	1,4074
15.06.2011	1,4163	1,4436	1,4441	1,4156
14.06.2011	1,4443	1,4417	1,4498	1,4378
13.06.2011	1,4416	1,433	1,443	1,4322
10.06.2011	1,4346	1,4512	1,4551	1,4322
09.06.2011	1,4513	1,4595	1,4654	1,4478
08.06.2011	1,4578	1,4682	1,4695	1,4565
07.06.2011	1,4688	1,4589	1,4697	1,4564
06.06.2011	1,4578	1,4652	1,4658	1,4558
03.06.2011	1,4634	1,4483	1,4643	1,4452
02.06.2011	1,4491	1,4339	1,4514	1,4326
01.06.2011	1,433	1,4435	1,4459	1,4308
31.05.2011	1,4396	1,434	1,4425	1,4326
30.05.2011	1,4287	1,4286	1,4307	1,4257
27.05.2011	1,4321	1,4136	1,4329	1,413
26.05.2011	1,4135	1,4083	1,4207	1,4068
25.05.2011	1,4083	1,4099	1,4118	1,4014
24.05.2011	1,4103	1,4024	1,4134	1,4002
23.05.2011	1,4048	1,4103	1,4157	1,397
20.05.2011	1,4158	1,4319	1,4346	1,4133
19.05.2011	1,4309	1,4259	1,4326	1,4207
18.05.2011	1,4251	1,4268	1,4287	1,4195
17.05.2011	1,4236	1,4154	1,4239	1,4121
16.05.2011	1,4161	1,4083	1,4245	1,4048
13.05.2011	1,4115	1,4243	1,434	1,4066
12.05.2011	1,4241	1,421	1,4277	1,4123
11.05.2011	1,4198	1,4415	1,4423	1,4173
10.05.2011	1,4411	1,4372	1,4414	1,4271
09.05.2011	1,4358	1,4366	1,4442	1,4255
06.05.2011	1,4313	1,4546	1,4588	1,4309
05.05.2011	1,4542	1,4831	1,4899	1,4511
04.05.2011	1,483	1,4829	1,494	1,4775
03.05.2011	1,4822	1,482	1,489	1,4755
02.05.2011	1,4823	1,48	1,4902	1,4763
29.04.2011	1,4805	1,4841	1,4878	1,4804
28.04.2011	1,4825	1,4778	1,4882	1,4773
27.04.2011	1,4773	1,4686	1,4796	1,4633
26.04.2011	1,4649	1,4573	1,4657	1,4494
25.04.2011	1,4579	1,4565	1,4627	1,4526
22.04.2011	1,4566	1,4554	1,4589	1,4534
21.04.2011	1,4552	1,4509	1,4649	1,4506
20.04.2011	1,4522	1,434	1,4547	1,4335
19.04.2011	1,4333	1,4233	1,4352	1,4205
18.04.2011	1,4228	1,4414	1,4428	1,4157
15.04.2011	1,4427	1,4489	1,4504	1,4391
14.04.2011	1,4487	1,445	1,4515	1,4366
13.04.2011	1,4441	1,4473	1,452	1,4414
12.04.2011	1,4479	1,4432	1,452	1,4377
11.04.2011	1,4432	1,4463	1,4484	1,4421
08.04.2011	1,4483	1,4301	1,4488	1,4291
07.04.2011	1,4306	1,4332	1,4335	1,4243
06.04.2011	1,4331	1,4223	1,4349	1,4219
05.04.2011	1,4219	1,4231	1,4246	1,4152
04.04.2011	1,4218	1,4232	1,4269	1,4193
01.04.2011	1,4236	1,4162	1,4246	1,4062
31.03.2011	1,4175	1,4122	1,4233	1,4116
30.03.2011	1,4126	1,4115	1,4147	1,4052
29.03.2011	1,411	1,4077	1,4149	1,4047
28.03.2011	1,4082	1,4025	1,4116	1,4023
25.03.2011	1,4075	1,4168	1,4194	1,4056
24.03.2011	1,4181	1,4107	1,4221	1,4054
23.03.2011	1,4101	1,4162	1,4215	1,4077
22.03.2011	1,4189	1,4217	1,4249	1,4179
21.03.2011	1,4215	1,4168	1,424	1,4139
18.03.2011	1,4168	1,3992	1,4184	1,3981
17.03.2011	1,4017	1,3891	1,4053	1,3883
16.03.2011	1,3915	1,3981	1,4001	1,3867
15.03.2011	1,3972	1,3995	1,4013	1,3856
14.03.2011	1,3994	1,3925	1,4004	1,3905
11.03.2011	1,3903	1,3801	1,3916	1,3752
10.03.2011	1,3801	1,391	1,3925	1,3777
09.03.2011	1,3905	1,3894	1,3942	1,3856
08.03.2011	1,3903	1,3963	1,3989	1,3862
07.03.2011	1,3969	1,3993	1,4036	1,3956
04.03.2011	1,3986	1,3962	1,4008	1,3941
03.03.2011	1,3961	1,386	1,3976	1,3833
02.03.2011	1,3864	1,3777	1,389	1,3744
01.03.2011	1,3777	1,3816	1,3855	1,3763
28.02.2011	1,381	1,372	1,3856	1,3712
25.02.2011	1,375	1,382	1,3839	1,3724
24.02.2011	1,3803	1,3768	1,3821	1,3704
23.02.2011	1,375	1,368	1,3787	1,3676
22.02.2011	1,3655	1,3678	1,3704	1,3525
21.02.2011	1,3676	1,3705	1,3711	1,3648
18.02.2011	1,3698	1,3623	1,3715	1,3546
17.02.2011	1,3606	1,3575	1,3619	1,3537
16.02.2011	1,3561	1,3508	1,3588	1,3462
15.02.2011	1,3488	1,3486	1,3551	1,3462
14.02.2011	1,349	1,3506	1,3559	1,3428
11.02.2011	1,3553	1,3605	1,3621	1,3498
10.02.2011	1,3594	1,3721	1,3728	1,3577
09.02.2011	1,3725	1,3615	1,3745	1,3611
08.02.2011	1,363	1,358	1,3689	1,3573
07.02.2011	1,3578	1,3579	1,3627	1,3508
04.02.2011	1,3579	1,3625	1,3679	1,3544
03.02.2011	1,3626	1,381	1,3826	1,361
02.02.2011	1,3805	1,3832	1,3862	1,3767
01.02.2011	1,3825	1,3719	1,3843	1,3701
31.01.2011	1,3691	1,3584	1,374	1,3571
28.01.2011	1,3613	1,3722	1,3747	1,3584
27.01.2011	1,373	1,3713	1,3759	1,3637
26.01.2011	1,3698	1,3668	1,3722	1,3641
25.01.2011	1,368	1,3631	1,3704	1,3573
24.01.2011	1,364	1,3592	1,3686	1,3541
21.01.2011	1,3622	1,3454	1,3626	1,3453
20.01.2011	1,3464	1,3435	1,3524	1,3397
19.01.2011	1,3456	1,3392	1,3538	1,3387
18.01.2011	1,3386	1,3275	1,3466	1,3254
17.01.2011	1,3277	1,3362	1,3366	1,3245
14.01.2011	1,3387	1,3342	1,3458	1,3315
13.01.2011	1,3348	1,3123	1,3384	1,3089
12.01.2011	1,3129	1,2973	1,3145	1,2962
11.01.2011	1,2974	1,295	1,2994	1,2905
10.01.2011	1,2947	1,2891	1,2965	1,2874
07.01.2011	1,2908	1,3	1,3022	1,2906
06.01.2011	1,3003	1,316	1,3171	1,2984
05.01.2011	1,3151	1,3306	1,3307	1,3126
04.01.2011	1,3311	1,3356	1,3434	1,3292
03.01.2011	1,3351	1,3331	1,3396	1,3251
31.12.2010	1,3385	1,33	1,3425	1,3289
30.12.2010	1,3292	1,3236	1,3315	1,3224
29.12.2010	1,3218	1,3108	1,3239	1,3097
28.12.2010	1,311	1,32	1,3275	1,3094
27.12.2010	1,3163	1,3091	1,3171	1,3091
24.12.2010	1,3123	1,3117	1,3149	1,3094
23.12.2010	1,3111	1,3118	1,3152	1,3056
22.12.2010	1,3104	1,3096	1,3182	1,3079
21.12.2010	1,31	1,3119	1,3203	1,3074
20.12.2010	1,3121	1,3165	1,3183	1,3095
17.12.2010	1,3188	1,3247	1,3359	1,3134
16.12.2010	1,3242	1,3217	1,3267	1,3182
15.12.2010	1,3221	1,335	1,3379	1,3209
14.12.2010	1,338	1,3384	1,3499	1,3363
13.12.2010	1,3387	1,32	1,3434	1,3183
10.12.2010	1,3228	1,3233	1,3283	1,3179
09.12.2010	1,3237	1,3255	1,3323	1,3165
08.12.2010	1,3264	1,3264	1,328	1,318
07.12.2010	1,3266	1,3295	1,3401	1,3254
06.12.2010	1,331	1,3383	1,3397	1,3247
03.12.2010	1,3415	1,3213	1,3438	1,3194
02.12.2010	1,3216	1,3116	1,3248	1,3061
01.12.2010	1,3127	1,3	1,3182	1,2971
30.11.2010	1,2982	1,3108	1,3151	1,2969
29.11.2010	1,3107	1,3238	1,3303	1,3064
26.11.2010	1,3242	1,3341	1,3348	1,3201
25.11.2010	1,3345	1,3335	1,3388	1,3287
24.11.2010	1,3337	1,3381	1,3422	1,3285
23.11.2010	1,3382	1,3612	1,3614	1,3362
22.11.2010	1,3625	1,3756	1,3787	1,3577
19.11.2010	1,3673	1,3659	1,3732	1,3608
18.11.2010	1,3644	1,3551	1,3668	1,3546
17.11.2010	1,353	1,3472	1,3567	1,346
16.11.2010	1,3483	1,3571	1,3656	1,3448
15.11.2010	1,3579	1,3719	1,3751	1,3565
12.11.2010	1,3691	1,3637	1,3778	1,3574
11.11.2010	1,3664	1,3784	1,3821	1,3638
10.11.2010	1,3776	1,3769	1,3826	1,3671
09.11.2010	1,3764	1,3868	1,3974	1,375
08.11.2010	1,3913	1,4065	1,4074	1,3888
05.11.2010	1,4033	1,4224	1,4231	1,4024
04.11.2010	1,4213	1,4121	1,4283	1,4103
03.11.2010	1,4124	1,4034	1,4194	1,3992
02.11.2010	1,4032	1,3914	1,4059	1,3882
01.11.2010	1,3899	1,397	1,4012	1,3864
29.10.2010	1,3947	1,3927	1,3951	1,3807
28.10.2010	1,3929	1,3776	1,3946	1,3776
27.10.2010	1,3775	1,3861	1,3879	1,3734
26.10.2010	1,3862	1,3915	1,3982	1,3826
25.10.2010	1,3955	1,3943	1,408	1,3939
22.10.2010	1,3954	1,3917	1,3972	1,3859
21.10.2010	1,3926	1,3962	1,4051	1,3872
20.10.2010	1,3958	1,3725	1,3992	1,3698
19.10.2010	1,3742	1,3954	1,4004	1,3714
18.10.2010	1,3951	1,3974	1,3999	1,3831
15.10.2010	1,3979	1,4058	1,416	1,3937
14.10.2010	1,408	1,3973	1,4123	1,3973
13.10.2010	1,3961	1,3916	1,4002	1,3912
12.10.2010	1,3916	1,3872	1,3937	1,3775
11.10.2010	1,3882	1,4	1,4003	1,3867
08.10.2010	1,3946	1,3915	1,3984	1,3835
07.10.2010	1,3914	1,3918	1,4029	1,3858
06.10.2010	1,3926	1,3835	1,3949	1,3799
05.10.2010	1,3835	1,3678	1,3859	1,3638
04.10.2010	1,3675	1,3775	1,3785	1,3667
01.10.2010	1,3791	1,3625	1,3792	1,3621
30.09.2010	1,3629	1,3621	1,3684	1,356
29.09.2010	1,3622	1,3579	1,3647	1,3558
28.09.2010	1,3587	1,3433	1,3596	1,3382
27.09.2010	1,3441	1,3482	1,3507	1,3426
24.09.2010	1,3494	1,3319	1,3495	1,3287
23.09.2010	1,3314	1,3392	1,3414	1,3305
22.09.2010	1,34	1,3263	1,344	1,3262
21.09.2010	1,3251	1,3068	1,3287	1,3058
20.09.2010	1,3063	1,3047	1,3122	1,3029
17.09.2010	1,3056	1,3074	1,316	1,302
16.09.2010	1,3074	1,3009	1,3117	1,2976
15.09.2010	1,3013	1,2995	1,3037	1,2956
14.09.2010	1,2988	1,287	1,3034	1,283
13.09.2010	1,2878	1,2721	1,2893	1,2718
10.09.2010	1,2677	1,2692	1,2747	1,2644
09.09.2010	1,2699	1,2732	1,2766	1,2665
08.09.2010	1,2724	1,2683	1,2764	1,266
07.09.2010	1,2684	1,2857	1,2857	1,2678
06.09.2010	1,2875	1,2896	1,292	1,2868
03.09.2010	1,2897	1,2821	1,2898	1,2809
02.09.2010	1,2826	1,2806	1,2849	1,2777
01.09.2010	1,2803	1,2689	1,2856	1,2663
31.08.2010	1,269	1,2664	1,2743	1,2626
30.08.2010	1,2664	1,2752	1,2756	1,266
27.08.2010	1,2763	1,2705	1,278	1,2676
26.08.2010	1,2717	1,2671	1,2765	1,2651
25.08.2010	1,2664	1,2632	1,2727	1,2609
24.08.2010	1,2632	1,2637	1,272	1,2588
23.08.2010	1,2647	1,2699	1,273	1,2647
20.08.2010	1,2711	1,2809	1,2834	1,2664
19.08.2010	1,2816	1,2845	1,2903	1,2772
18.08.2010	1,2854	1,2876	1,2923	1,2824
17.08.2010	1,288	1,2829	1,2916	1,2805
16.08.2010	1,2823	1,2771	1,2872	1,2734
13.08.2010	1,2757	1,2842	1,2907	1,275
12.08.2010	1,2828	1,285	1,2933	1,2781
11.08.2010	1,2845	1,3179	1,3212	1,283
10.08.2010	1,3176	1,3219	1,3229	1,3075
09.08.2010	1,3225	1,328	1,3309	1,3217
06.08.2010	1,3281	1,3182	1,3334	1,3158
05.08.2010	1,3185	1,3158	1,3236	1,3119
04.08.2010	1,3155	1,3223	1,324	1,3132
03.08.2010	1,3227	1,3182	1,3262	1,3147
02.08.2010	1,3177	1,3059	1,3196	1,3056
30.07.2010	1,3051	1,3072	1,3094	1,298
29.07.2010	1,3081	1,2998	1,3107	1,2978
28.07.2010	1,2988	1,2993	1,3043	1,2967
27.07.2010	1,3001	1,2995	1,3047	1,2952
26.07.2010	1,2988	1,2888	1,3005	1,2888
23.07.2010	1,2903	1,2897	1,2966	1,2794
22.07.2010	1,2888	1,2766	1,2933	1,2737
21.07.2010	1,2754	1,2895	1,2914	1,2733
20.07.2010	1,2892	1,2938	1,3029	1,284
19.07.2010	1,2948	1,29	1,2992	1,2871
16.07.2010	1,2931	1,292	1,3008	1,289
15.07.2010	1,2932	1,2741	1,2955	1,2709
14.07.2010	1,2743	1,2717	1,2779	1,2683
13.07.2010	1,2727	1,2593	1,2739	1,2523
12.07.2010	1,259	1,2638	1,2646	1,2552
09.07.2010	1,2643	1,2692	1,2723	1,2609
08.07.2010	1,2694	1,2631	1,2711	1,2621
07.07.2010	1,2631	1,2617	1,2664	1,2553
06.07.2010	1,2626	1,2528	1,2662	1,2455
05.07.2010	1,2538	1,2548	1,2558	1,251
02.07.2010	1,2565	1,2508	1,2612	1,247
01.07.2010	1,2519	1,2222	1,2539	1,2194
30.06.2010	1,2233	1,2188	1,2305	1,2167
29.06.2010	1,2189	1,2281	1,2292	1,2151
28.06.2010	1,2282	1,2375	1,2398	1,2266
25.06.2010	1,2376	1,233	1,2396	1,2254
24.06.2010	1,2329	1,2312	1,2389	1,2262
23.06.2010	1,2312	1,2274	1,2344	1,221
22.06.2010	1,2269	1,2322	1,2355	1,2252
21.06.2010	1,2324	1,2405	1,2467	1,2304
18.06.2010	1,2388	1,2379	1,2417	1,2353
17.06.2010	1,2381	1,2307	1,2414	1,2242
16.06.2010	1,23	1,2315	1,2354	1,2255
15.06.2010	1,2324	1,2214	1,235	1,2169
14.06.2010	1,2213	1,2182	1,2299	1,2164
11.06.2010	1,2113	1,2115	1,2159	1,2045
10.06.2010	1,2109	1,1986	1,2142	1,1957
09.06.2010	1,1985	1,1967	1,2074	1,1924
08.06.2010	1,1965	1,1929	1,201	1,1902
07.06.2010	1,1917	1,195	1,1992	1,1877
04.06.2010	1,1971	1,216	1,2216	1,1956
03.06.2010	1,2162	1,223	1,2327	1,2153
02.06.2010	1,225	1,2247	1,2274	1,2176
01.06.2010	1,2211	1,2285	1,2354	1,2111
31.05.2010	1,231	1,2285	1,2335	1,2267
28.05.2010	1,2271	1,2347	1,2454	1,2266
27.05.2010	1,2357	1,2171	1,2396	1,2164
26.05.2010	1,2161	1,2357	1,2359	1,2155
25.05.2010	1,2372	1,235	1,2388	1,2176
24.05.2010	1,2346	1,2544	1,2546	1,2334
21.05.2010	1,2585	1,2496	1,2673	1,2459
20.05.2010	1,2469	1,2389	1,2597	1,2296
19.05.2010	1,2423	1,2188	1,2432	1,2145
18.05.2010	1,2174	1,2381	1,2445	1,2159
17.05.2010	1,24	1,2362	1,2415	1,2235
14.05.2010	1,2361	1,2536	1,2576	1,2354
13.05.2010	1,2523	1,2634	1,2685	1,2517
12.05.2010	1,2632	1,2641	1,274	1,2606
11.05.2010	1,2634	1,2751	1,2804	1,2629
10.05.2010	1,2787	1,2876	1,3095	1,2743
07.05.2010	1,2759	1,2634	1,2799	1,2566
06.05.2010	1,2632	1,2817	1,2857	1,2519
05.05.2010	1,2819	1,2977	1,2996	1,279
04.05.2010	1,2973	1,3198	1,3214	1,2964
03.05.2010	1,319	1,3322	1,3325	1,3155
30.04.2010	1,3291	1,3261	1,3343	1,3225
29.04.2010	1,3244	1,3211	1,3279	1,3184
28.04.2010	1,3205	1,3176	1,3267	1,3114
27.04.2010	1,3161	1,3409	1,3411	1,3145
26.04.2010	1,3393	1,3375	1,3415	1,3292
23.04.2010	1,3383	1,3212	1,34	1,3203
22.04.2010	1,3287	1,3386	1,3422	1,3259
21.04.2010	1,3388	1,3425	1,3448	1,3359
20.04.2010	1,3442	1,3493	1,3524	1,3429
19.04.2010	1,3491	1,349	1,3493	1,3417
16.04.2010	1,3502	1,3572	1,3573	1,3472
15.04.2010	1,358	1,3656	1,3667	1,3521
14.04.2010	1,3651	1,3614	1,3679	1,3593
13.04.2010	1,3616	1,3596	1,3628	1,3546
12.04.2010	1,3587	1,3667	1,3693	1,3452
09.04.2010	1,3499	1,3361	1,3499	1,3342
08.04.2010	1,3358	1,3334	1,3371	1,3283
07.04.2010	1,3339	1,3404	1,3406	1,3327
06.04.2010	1,3394	1,3495	1,3497	1,3356
05.04.2010	1,3483	1,3496	1,3539	1,3461
02.04.2010	1,3502	1,3585	1,3591	1,3476
01.04.2010	1,3585	1,3517	1,3591	1,346
31.03.2010	1,3507	1,3424	1,3549	1,3385
30.03.2010	1,3419	1,3483	1,3538	1,3396
29.03.2010	1,3476	1,3449	1,3507	1,3419
26.03.2010	1,33	1,33	1,33	1,33
25.03.2010	1,3272	1,3333	1,3388	1,3268
24.03.2010	1,3329	1,3476	1,3503	1,3306
23.03.2010	1,3492	1,3561	1,3564	1,3476
22.03.2010	1,3559	1,3512	1,3569	1,3464
19.03.2010	1,3533	1,3608	1,3628	1,3503
18.03.2010	1,3608	1,3735	1,3736	1,3586
17.03.2010	1,3737	1,3774	1,3818	1,3727
16.03.2010	1,3764	1,3677	1,3783	1,3657
15.03.2010	1,3674	1,3765	1,3769	1,364
12.03.2010	1,3682	1,3682	1,3682	1,3682
11.03.2010	1,3677	1,3644	1,3688	1,3621
10.03.2010	1,3656	1,3602	1,368	1,3545
09.03.2010	1,3602	1,361	1,3636	1,3537
08.03.2010	1,3628	1,3661	1,3705	1,3605
05.03.2010	1,3623	1,3586	1,3631	1,3531
04.03.2010	1,358	1,3691	1,3713	1,3552
03.03.2010	1,3695	1,3631	1,3737	1,3593
02.03.2010	1,3608	1,3571	1,3623	1,3435
01.03.2010	1,3569	1,3639	1,3655	1,346
26.02.2010	1,3539	1,3539	1,3539	1,3539
25.02.2010	1,354	1,3535	1,3571	1,3452
24.02.2010	1,3539	1,3509	1,3627	1,3502
23.02.2010	1,3513	1,3606	1,3693	1,3498
22.02.2010	1,3602	1,3632	1,3654	1,3574
19.02.2010	1,3614	1,3472	1,3618	1,3456
18.02.2010	1,3494	1,3604	1,3655	1,3485
17.02.2010	1,36	1,3773	1,3789	1,3586
16.02.2010	1,3759	1,3594	1,3779	1,3589
15.02.2010	1,3599	1,3624	1,3635	1,3579
12.02.2010	1,3636	1,368	1,3692	1,3532
11.02.2010	1,369	1,3747	1,3801	1,3596
10.02.2010	1,3735	1,3788	1,3813	1,3677
09.02.2010	1,3794	1,3669	1,384	1,365
08.02.2010	1,3657	1,3641	1,3714	1,3622
05.02.2010	1,3683	1,3744	1,3746	1,3586
04.02.2010	1,3728	1,3899	1,3901	1,3716
03.02.2010	1,3892	1,397	1,4027	1,3887
02.02.2010	1,3967	1,3922	1,3975	1,3887
01.02.2010	1,3933	1,3874	1,3938	1,3853
29.01.2010	1,3862	1,3967	1,3988	1,3861
28.01.2010	1,3962	1,4035	1,4053	1,3934
27.01.2010	1,4035	1,4073	1,4097	1,3996
26.01.2010	1,4079	1,4166	1,418	1,4043
25.01.2010	1,4148	1,415	1,4195	1,4129
22.01.2010	1,4138	1,4096	1,4182	1,4087
21.01.2010	1,4085	1,412	1,4144	1,4029
20.01.2010	1,4107	1,4279	1,4289	1,408
19.01.2010	1,4287	1,4405	1,4413	1,4253
18.01.2010	1,4388	1,4373	1,4401	1,4336
15.01.2010	1,4388	1,4493	1,4497	1,4337
14.01.2010	1,4499	1,4526	1,4556	1,4447
13.01.2010	1,4501	1,4477	1,458	1,4456
12.01.2010	1,4492	1,4492	1,4547	1,4454
11.01.2010	1,4514	1,4468	1,4558	1,4468
08.01.2010	1,4407	1,4312	1,444	1,4264
07.01.2010	1,4305	1,4426	1,4447	1,43
06.01.2010	1,4401	1,4351	1,4436	1,4283
05.01.2010	1,4362	1,4424	1,4484	1,4347
04.01.2010	1,4413	1,43	1,4457	1,4258
31.12.2009	1,4325	1,4341	1,4442	1,4307
30.12.2009	1,4337	1,4342	1,4362	1,4274
29.12.2009	1,4352	1,437	1,4459	1,4332
28.12.2009	1,4373	1,4373	1,4414	1,4355
25.12.2009	1,4386	1,4383	1,4437	1,4358
24.12.2009	1,4379	1,434	1,4419	1,4331
23.12.2009	1,4329	1,4256	1,4367	1,4235
22.12.2009	1,4254	1,4288	1,4332	1,4218
21.12.2009	1,4274	1,4343	1,4374	1,4266
18.12.2009	1,4337	1,4333	1,4541	1,4261
17.12.2009	1,435	1,4527	1,4531	1,4304
16.12.2009	1,4531	1,4527	1,4591	1,4506
15.12.2009	1,4537	1,4656	1,4659	1,4504
14.12.2009	1,4652	1,4621	1,4686	1,4608
11.12.2009	1,4618	1,4731	1,4777	1,4587
10.12.2009	1,4733	1,4743	1,4761	1,4684
09.12.2009	1,474	1,4691	1,4783	1,4674
08.12.2009	1,4704	1,4826	1,4867	1,4682
07.12.2009	1,4829	1,4872	1,4905	1,4757
04.12.2009	1,4857	1,5054	1,5094	1,4823
03.12.2009	1,5054	1,505	1,5142	1,4988
02.12.2009	1,5048	1,5086	1,511	1,5033
01.12.2009	1,5076	1,5032	1,5118	1,4951
30.11.2009	1,5009	1,4982	1,5084	1,4973
27.11.2009	1,4985	1,4999	1,4999	1,4829
26.11.2009	1,5008	1,5127	1,5139	1,4959
25.11.2009	1,5137	1,4975	1,5144	1,4962
24.11.2009	1,4964	1,4945	1,4989	1,4889
23.11.2009	1,4962	1,4896	1,5	1,4887
20.11.2009	1,4862	1,4926	1,4965	1,4801
19.11.2009	1,4917	1,4952	1,4953	1,4844
18.11.2009	1,4961	1,4889	1,4991	1,4869
17.11.2009	1,4862	1,4991	1,4992	1,4808
16.11.2009	1,4969	1,496	1,5016	1,4881
13.11.2009	1,4903	1,4869	1,4939	1,4825
12.11.2009	1,4846	1,499	1,5016	1,4822
11.11.2009	1,4986	1,5002	1,5048	1,4954
10.11.2009	1,4985	1,5002	1,5021	1,4939
09.11.2009	1,4997	1,4863	1,5021	1,4863
06.11.2009	1,4842	1,4869	1,4915	1,4814
05.11.2009	1,4874	1,4869	1,4919	1,4812
04.11.2009	1,4877	1,4712	1,4909	1,4703
03.11.2009	1,4717	1,4803	1,4807	1,4627
02.11.2009	1,4773	1,4716	1,4846	1,4709
30.10.2009	1,4715	1,484	1,4859	1,4704
29.10.2009	1,4841	1,4693	1,4859	1,4684
28.10.2009	1,4716	1,4818	1,4842	1,4693
27.10.2009	1,4808	1,486	1,4928	1,4771
26.10.2009	1,4865	1,4986	1,5063	1,4845
23.10.2009	1,5006	1,5035	1,5061	1,4987
22.10.2009	1,5028	1,5022	1,5039	1,4944
21.10.2009	1,5008	1,4928	1,5047	1,4889
20.10.2009	1,4938	1,4962	1,4995	1,4883
19.10.2009	1,4966	1,4916	1,4981	1,4829
16.10.2009	1,4906	1,4934	1,4968	1,4849
15.10.2009	1,4938	1,4933	1,4968	1,4843
14.10.2009	1,4934	1,4843	1,4947	1,4826
13.10.2009	1,4853	1,4787	1,4877	1,4762
12.10.2009	1,4777	1,4736	1,4814	1,4677
09.10.2009	1,4729	1,4769	1,4783	1,4674
08.10.2009	1,4793	1,4699	1,4818	1,4667
07.10.2009	1,4688	1,4729	1,4738	1,4651
06.10.2009	1,4723	1,465	1,4763	1,465
05.10.2009	1,465	1,4607	1,467	1,459
02.10.2009	1,4569	1,4534	1,4649	1,4481
01.10.2009	1,4543	1,4637	1,4669	1,4518
30.09.2009	1,4638	1,4588	1,4674	1,4576
29.09.2009	1,4583	1,4632	1,4647	1,4527
28.09.2009	1,4614	1,4704	1,4718	1,4565
25.09.2009	1,4691	1,4645	1,4725	1,4615
24.09.2009	1,4661	1,4713	1,4803	1,4629
23.09.2009	1,4691	1,4802	1,4845	1,4691
22.09.2009	1,479	1,4679	1,4822	1,4679
21.09.2009	1,4676	1,4704	1,4714	1,4611
18.09.2009	1,4709	1,4738	1,4751	1,4648
17.09.2009	1,4745	1,4707	1,4767	1,4689
16.09.2009	1,4709	1,4665	1,4738	1,4642
15.09.2009	1,4663	1,4627	1,4686	1,4562
14.09.2009	1,4629	1,4589	1,4653	1,4516
11.09.2009	1,4568	1,4579	1,4636	1,4554
10.09.2009	1,4579	1,4553	1,4614	1,4503
09.09.2009	1,4566	1,4508	1,4601	1,4467
08.09.2009	1,4495	1,4339	1,4536	1,4329
07.09.2009	1,4339	1,4315	1,4363	1,4308
04.09.2009	1,4293	1,4255	1,4328	1,4192
03.09.2009	1,4259	1,4275	1,4349	1,4236
02.09.2009	1,4261	1,4221	1,4295	1,419
01.09.2009	1,4219	1,4339	1,4378	1,4178
31.08.2009	1,4333	1,4292	1,4368	1,4256
28.08.2009	1,4295	1,436	1,4389	1,4282
27.08.2009	1,4348	1,4252	1,4412	1,422
26.08.2009	1,4243	1,4287	1,4353	1,4207
25.08.2009	1,4299	1,4288	1,4363	1,4253
24.08.2009	1,4299	1,4338	1,436	1,4281
21.08.2009	1,4324	1,4263	1,4377	1,4209
20.08.2009	1,4247	1,4233	1,4274	1,4201
19.08.2009	1,4236	1,4134	1,4268	1,4085
18.08.2009	1,4133	1,4089	1,4156	1,407
17.08.2009	1,4074	1,4188	1,4188	1,4046
14.08.2009	1,4205	1,428	1,4308	1,4161
13.08.2009	1,428	1,4213	1,4328	1,4178
12.08.2009	1,4203	1,4149	1,4248	1,4087
11.08.2009	1,4149	1,4132	1,4186	1,411
10.08.2009	1,4146	1,4193	1,4219	1,4105
07.08.2009	1,4187	1,4363	1,4415	1,4154
06.08.2009	1,4355	1,4417	1,4437	1,433
05.08.2009	1,4415	1,4417	1,4448	1,4356
04.08.2009	1,4399	1,4415	1,4431	1,4367
03.08.2009	1,4421	1,4255	1,4445	1,4207
31.07.2009	1,4259	1,4082	1,428	1,4078
30.07.2009	1,4068	1,4026	1,4096	1,4009
29.07.2009	1,4034	1,4164	1,4196	1,4007
28.07.2009	1,4173	1,4235	1,4305	1,4131
27.07.2009	1,4243	1,4213	1,4298	1,4172
24.07.2009	1,4202	1,4168	1,4254	1,4136
23.07.2009	1,4152	1,4207	1,4292	1,412
22.07.2009	1,4207	1,4215	1,4258	1,4156
21.07.2009	1,4214	1,4225	1,4278	1,4164
20.07.2009	1,4228	1,4128	1,425	1,4126
17.07.2009	1,4092	1,4141	1,4148	1,4063
16.07.2009	1,4141	1,4092	1,4166	1,4056
15.07.2009	1,4102	1,3966	1,4135	1,3964
14.07.2009	1,3973	1,4003	1,4015	1,3912
13.07.2009	1,3988	1,3966	1,4002	1,3898
10.07.2009	1,3929	1,4018	1,4021	1,3878
09.07.2009	1,4024	1,3871	1,4073	1,3859
08.07.2009	1,3876	1,3909	1,3939	1,3832
07.07.2009	1,392	1,3974	1,4051	1,3904
06.07.2009	1,3974	1,3963	1,3999	1,3877
03.07.2009	1,3971	1,3955	1,4028	1,3945
02.07.2009	1,3951	1,4153	1,4153	1,3929
01.07.2009	1,4154	1,4038	1,4202	1,4002
30.06.2009	1,4036	1,4096	1,4152	1,4001
29.06.2009	1,4073	1,4063	1,4104	1,3983
26.06.2009	1,4059	1,3993	1,4119	1,3988
25.06.2009	1,3996	1,3943	1,4014	1,3889
24.06.2009	1,393	1,4071	1,4139	1,3889
23.06.2009	1,4075	1,3852	1,4109	1,3829
22.06.2009	1,3857	1,3935	1,3939	1,3827
19.06.2009	1,3938	1,3907	1,4013	1,3883
18.06.2009	1,3906	1,3943	1,4002	1,3872
17.06.2009	1,3943	1,3835	1,3986	1,3807
16.06.2009	1,3835	1,3788	1,3934	1,3749
15.06.2009	1,3787	1,3988	1,4002	1,3756
12.06.2009	1,4017	1,4097	1,4129	1,3936
11.06.2009	1,4097	1,3966	1,4178	1,3944
10.06.2009	1,3967	1,4075	1,4144	1,3916
09.06.2009	1,4076	1,3904	1,4102	1,3852
08.06.2009	1,3901	1,3942	1,4003	1,3805
05.06.2009	1,3978	1,4177	1,4269	1,3931
04.06.2009	1,4177	1,4147	1,4245	1,407
03.06.2009	1,4146	1,4307	1,434	1,4107
02.06.2009	1,4308	1,4155	1,4334	1,4101
01.06.2009	1,4152	1,4118	1,4248	1,4097
29.05.2009	1,4156	1,3932	1,4171	1,3924
28.05.2009	1,3933	1,3837	1,3985	1,3792
27.05.2009	1,3836	1,3991	1,4003	1,3822
26.05.2009	1,399	1,4013	1,4025	1,3859
25.05.2009	1,4015	1,4024	1,4036	1,3957
22.05.2009	1,3998	1,3904	1,4053	1,3898
21.05.2009	1,3904	1,3765	1,3926	1,3726
20.05.2009	1,3765	1,3629	1,3833	1,3582
19.05.2009	1,3628	1,3556	1,367	1,3529
18.05.2009	1,3556	1,3481	1,3566	1,3422
15.05.2009	1,3496	1,3634	1,3652	1,346
14.05.2009	1,3635	1,359	1,3667	1,3525
13.05.2009	1,3591	1,3645	1,3723	1,3565
12.05.2009	1,3646	1,3579	1,371	1,3563
11.05.2009	1,3578	1,3622	1,367	1,3556
08.05.2009	1,3641	1,3387	1,3653	1,3341
07.05.2009	1,3388	1,3314	1,3471	1,3251
06.05.2009	1,3312	1,3313	1,3377	1,3245
05.05.2009	1,3312	1,3422	1,3438	1,3281
04.05.2009	1,3417	1,3284	1,3427	1,3211
01.05.2009	1,327	1,3224	1,3331	1,3217
30.04.2009	1,3224	1,3253	1,3387	1,319
29.04.2009	1,3253	1,3137	1,3344	1,3119
28.04.2009	1,3138	1,3027	1,3169	1,2964
27.04.2009	1,3018	1,3226	1,3234	1,2998
24.04.2009	1,3244	1,3135	1,3303	1,3111
23.04.2009	1,3135	1,3004	1,3163	1,2978
22.04.2009	1,3003	1,2947	1,3039	1,2886
21.04.2009	1,2948	1,2927	1,2995	1,2896
20.04.2009	1,2925	1,3038	1,304	1,2887
17.04.2009	1,3047	1,3181	1,32	1,3016
16.04.2009	1,318	1,3214	1,3271	1,3125
15.04.2009	1,3213	1,3262	1,3299	1,3146
14.04.2009	1,3264	1,3366	1,3383	1,3226
13.04.2009	1,3369	1,3175	1,3394	1,3125
10.04.2009	1,3188	1,3159	1,3192	1,3088
09.04.2009	1,3158	1,3266	1,3337	1,3125
08.04.2009	1,3268	1,3269	1,3313	1,3146
07.04.2009	1,3268	1,3402	1,341	1,3226
06.04.2009	1,3401	1,3524	1,3584	1,3357
03.04.2009	1,3485	1,3464	1,3497	1,3364
02.04.2009	1,3466	1,3236	1,3518	1,3234
01.04.2009	1,3235	1,3241	1,3289	1,3165
31.03.2009	1,3243	1,3188	1,3344	1,3173
30.03.2009	1,3203	1,3268	1,3288	1,3112
27.03.2009	1,3291	1,3532	1,3595	1,3255
26.03.2009	1,3533	1,3581	1,3642	1,3492
25.03.2009	1,358	1,3496	1,3651	1,3417
24.03.2009	1,3493	1,3623	1,368	1,343
23.03.2009	1,3622	1,3616	1,3738	1,3485
20.03.2009	1,3584	1,3656	1,3728	1,3514
19.03.2009	1,3655	1,3492	1,3741	1,3416
18.03.2009	1,3493	1,3037	1,3537	1,2984
17.03.2009	1,3037	1,2972	1,3044	1,2931
16.03.2009	1,2973	1,2881	1,3074	1,2868
13.03.2009	1,2932	1,2887	1,296	1,2862
12.03.2009	1,2889	1,2823	1,2948	1,273
11.03.2009	1,2824	1,2705	1,2866	1,2616
10.03.2009	1,2706	1,2592	1,2825	1,2589
09.03.2009	1,2592	1,2715	1,2729	1,2554
06.03.2009	1,2654	1,2542	1,2755	1,2537
05.03.2009	1,2542	1,2652	1,2655	1,2479
04.03.2009	1,2649	1,2542	1,2666	1,2456
03.03.2009	1,2544	1,2558	1,2679	1,252
02.03.2009	1,2557	1,2595	1,2635	1,2544
27.02.2009	1,267	1,2721	1,2753	1,2603
26.02.2009	1,2735	1,2733	1,2812	1,2681
25.02.2009	1,2721	1,2852	1,2902	1,2689
24.02.2009	1,287	1,2671	1,2879	1,2662
23.02.2009	1,2712	1,2805	1,2994	1,269
20.02.2009	1,2826	1,2662	1,2886	1,2555
19.02.2009	1,2689	1,2571	1,2763	1,2527
18.02.2009	1,2555	1,2578	1,2642	1,2512
17.02.2009	1,2578	1,2796	1,2802	1,2561
16.02.2009	1,2797	1,2786	1,2827	1,2726
13.02.2009	1,2864	1,2896	1,2944	1,2819
12.02.2009	1,2895	1,2887	1,2946	1,2722
11.02.2009	1,2887	1,2908	1,2999	1,2831
10.02.2009	1,2908	1,3	1,3075	1,2809
09.02.2009	1,3001	1,2968	1,3096	1,2873
06.02.2009	1,2935	1,2791	1,2995	1,2746
05.02.2009	1,2786	1,2835	1,2908	1,2759
04.02.2009	1,2835	1,3015	1,3072	1,2811
03.02.2009	1,3018	1,2816	1,3059	1,2801
02.02.2009	1,2816	1,2762	1,29	1,2705
30.01.2009	1,2825	1,2939	1,2942	1,2762
29.01.2009	1,2938	1,3152	1,3182	1,2931
28.01.2009	1,3152	1,3184	1,3328	1,31
27.01.2009	1,3184	1,321	1,3332	1,3118
26.01.2009	1,3208	1,2898	1,3239	1,2859
23.01.2009	1,2963	1,3017	1,3036	1,2763
22.01.2009	1,3017	1,3068	1,3085	1,2907
21.01.2009	1,3068	1,2862	1,3087	1,2824
20.01.2009	1,2859	1,3064	1,3106	1,2853
19.01.2009	1,3063	1,3359	1,338	1,3056
16.01.2009	1,3273	1,3138	1,3346	1,3135
15.01.2009	1,3138	1,3164	1,324	1,3024
14.01.2009	1,3161	1,3181	1,3338	1,3091
13.01.2009	1,3182	1,3368	1,3373	1,314
12.01.2009	1,3366	1,3426	1,3449	1,3289
09.01.2009	1,3455	1,3705	1,3758	1,3413
08.01.2009	1,3706	1,3657	1,38	1,3534
07.01.2009	1,3657	1,3502	1,3749	1,3432
06.01.2009	1,3499	1,3631	1,3648	1,3312
05.01.2009	1,3628	1,395	1,3965	1,3544
02.01.2009	1,3921	1,4003	1,403	1,3838
01.01.2009	1,4005	1,3975	1,4062	1,3946
31.12.2008	1,3994	1,411	1,4147	1,385
30.12.2008	1,4111	1,396	1,4223	1,394
29.12.2008	1,3961	1,4099	1,4365	1,3916
26.12.2008	1,4025	1,4018	1,412	1,3987
25.12.2008	1,4015	1,4009	1,4051	1,3976
24.12.2008	1,401	1,3927	1,4022	1,392
23.12.2008	1,3927	1,3952	1,4023	1,3913
22.12.2008	1,395	1,396	1,4127	1,39
19.12.2008	1,3918	1,4268	1,4312	1,3823
18.12.2008	1,4266	1,44	1,472	1,4185
17.12.2008	1,4407	1,4054	1,444	1,4006
16.12.2008	1,4048	1,3702	1,4149	1,3629
15.12.2008	1,3702	1,3439	1,3729	1,3428
12.12.2008	1,336	1,3344	1,3417	1,3249
11.12.2008	1,3348	1,3021	1,3409	1,3001
10.12.2008	1,3018	1,2925	1,3073	1,2899
09.12.2008	1,2923	1,2938	1,3004	1,2798
08.12.2008	1,2936	1,273	1,2969	1,2728
05.12.2008	1,2723	1,2774	1,2801	1,2627
04.12.2008	1,2772	1,2712	1,2851	1,2551
03.12.2008	1,2714	1,2721	1,2744	1,2601
02.12.2008	1,2728	1,2616	1,2767	1,2561
01.12.2008	1,2618	1,2657	1,2706	1,258
28.11.2008	1,2695	1,2897	1,2959	1,2644
27.11.2008	1,2895	1,2879	1,297	1,2859
26.11.2008	1,2879	1,3057	1,3061	1,2819
25.11.2008	1,3057	1,2948	1,3083	1,2803
24.11.2008	1,2948	1,2632	1,2963	1,2567
21.11.2008	1,2589	1,2455	1,264	1,2424
20.11.2008	1,2455	1,2501	1,2596	1,2433
19.11.2008	1,2498	1,2637	1,2816	1,2471
18.11.2008	1,2638	1,2635	1,2702	1,2565
17.11.2008	1,2637	1,2529	1,2744	1,2519
14.11.2008	1,2595	1,2788	1,2827	1,2577
13.11.2008	1,2789	1,2459	1,2857	1,2388
12.11.2008	1,2458	1,2511	1,2635	1,2436
11.11.2008	1,2512	1,275	1,2803	1,2504
10.11.2008	1,2751	1,2868	1,2929	1,2717
07.11.2008	1,2712	1,268	1,2853	1,2652
06.11.2008	1,2679	1,2932	1,2956	1,2674
05.11.2008	1,2928	1,2995	1,3118	1,2791
04.11.2008	1,2995	1,2609	1,3051	1,2525
03.11.2008	1,2584	1,2766	1,29	1,2575
31.10.2008	1,2734	1,2879	1,2896	1,2667
30.10.2008	1,2876	1,2949	1,33	1,2804
29.10.2008	1,2952	1,2773	1,2994	1,2625
28.10.2008	1,2817	1,2472	1,2837	1,2329
27.10.2008	1,2462	1,2668	1,2682	1,2332
24.10.2008	1,2628	1,2967	1,2973	1,2496
23.10.2008	1,2966	1,2827	1,3007	1,2726
22.10.2008	1,2825	1,3055	1,3079	1,2743
21.10.2008	1,3055	1,3332	1,3356	1,3049
20.10.2008	1,3331	1,3404	1,3533	1,3287
17.10.2008	1,341	1,3481	1,352	1,3385
16.10.2008	1,3481	1,3464	1,3539	1,3345
15.10.2008	1,3461	1,362	1,3688	1,3448
14.10.2008	1,362	1,3595	1,3771	1,3589
13.10.2008	1,3597	1,362	1,3685	1,3455
10.10.2008	1,3396	1,3597	1,3652	1,3257
09.10.2008	1,3598	1,3633	1,3788	1,3579
08.10.2008	1,3632	1,3624	1,376	1,3543
07.10.2008	1,3618	1,3489	1,3743	1,3481
06.10.2008	1,3484	1,3645	1,3678	1,3441
03.10.2008	1,3783	1,3802	1,3908	1,3702
02.10.2008	1,3801	1,4008	1,4027	1,3746
01.10.2008	1,4009	1,4113	1,4177	1,3975
30.09.2008	1,4116	1,4418	1,4429	1,4008
29.09.2008	1,4417	1,4547	1,4568	1,4301
26.09.2008	1,4588	1,4616	1,4681	1,4553
25.09.2008	1,4618	1,4616	1,477	1,4559
24.09.2008	1,4615	1,4671	1,4748	1,4602
23.09.2008	1,4672	1,4796	1,4902	1,4621
22.09.2008	1,4798	1,4467	1,4869	1,4452
19.09.2008	1,446	1,4324	1,4501	1,415
18.09.2008	1,4325	1,4324	1,4543	1,4277
17.09.2008	1,4324	1,4105	1,4385	1,4092
16.09.2008	1,4097	1,4273	1,4284	1,4073
15.09.2008	1,4275	1,4314	1,4483	1,4085
12.09.2008	1,4225	1,4012	1,4244	1,3971
11.09.2008	1,4017	1,3969	1,4042	1,3882
10.09.2008	1,3966	1,4107	1,4181	1,3952
09.09.2008	1,4107	1,4118	1,4228	1,4045
08.09.2008	1,4118	1,4347	1,4431	1,4053
05.09.2008	1,4279	1,4244	1,435	1,4196
04.09.2008	1,4243	1,4495	1,4547	1,421
03.09.2008	1,4493	1,4516	1,4534	1,4384
02.09.2008	1,4517	1,4587	1,4602	1,4465
01.09.2008	1,4587	1,4691	1,4706	1,458
29.08.2008	1,4666	1,4694	1,477	1,4639
28.08.2008	1,4694	1,4717	1,4813	1,467
27.08.2008	1,4716	1,4646	1,4779	1,4633
26.08.2008	1,4644	1,4754	1,4762	1,4571
25.08.2008	1,4754	1,4786	1,4811	1,4695
22.08.2008	1,4793	1,4896	1,4903	1,4756
21.08.2008	1,4897	1,4744	1,491	1,4732
20.08.2008	1,4744	1,4785	1,4807	1,4671
19.08.2008	1,4782	1,4674	1,4797	1,4628
18.08.2008	1,4678	1,4688	1,477	1,4671
15.08.2008	1,4687	1,4802	1,4807	1,4657
14.08.2008	1,4801	1,4922	1,4952	1,4776
13.08.2008	1,4922	1,4914	1,4983	1,4842
12.08.2008	1,4914	1,4894	1,4967	1,4814
11.08.2008	1,4893	1,4959	1,5086	1,4878
08.08.2008	1,5006	1,5327	1,5337	1,4996
07.08.2008	1,5324	1,5415	1,5505	1,5309
06.08.2008	1,5414	1,5452	1,5518	1,5397
05.08.2008	1,545	1,5572	1,5578	1,5446
04.08.2008	1,5572	1,5568	1,5633	1,5553
01.08.2008	1,5566	1,5599	1,5608	1,5512
31.07.2008	1,5598	1,5579	1,5703	1,5568
30.07.2008	1,5578	1,5587	1,5619	1,5519
29.07.2008	1,5584	1,574	1,5761	1,5553
28.07.2008	1,5739	1,5698	1,577	1,5683
25.07.2008	1,5712	1,5679	1,5756	1,5661
24.07.2008	1,568	1,5685	1,5716	1,5627
23.07.2008	1,5685	1,5789	1,5801	1,5669
22.07.2008	1,5787	1,5926	1,5946	1,5756
21.07.2008	1,5926	1,5832	1,5934	1,5829
18.07.2008	1,5851	1,5858	1,589	1,5806
17.07.2008	1,5859	1,582	1,5897	1,5783
16.07.2008	1,582	1,5913	1,5951	1,5799
15.07.2008	1,5913	1,5903	1,604	1,5865
14.07.2008	1,5903	1,5917	1,5937	1,584
11.07.2008	1,5947	1,5787	1,5949	1,5763
10.07.2008	1,5785	1,5743	1,5803	1,569
09.07.2008	1,5739	1,5667	1,5752	1,5649
08.07.2008	1,5667	1,5725	1,5742	1,5634
07.07.2008	1,5723	1,57	1,5755	1,561
04.07.2008	1,5706	1,5695	1,5729	1,5654
03.07.2008	1,5697	1,5891	1,5911	1,5681
02.07.2008	1,5891	1,5795	1,5893	1,5776
01.07.2008	1,5795	1,5756	1,583	1,5722
30.06.2008	1,5755	1,5795	1,5838	1,573
27.06.2008	1,5787	1,5753	1,5803	1,5718
26.06.2008	1,5752	1,5666	1,577	1,5629
25.06.2008	1,5666	1,5572	1,5689	1,5535
24.06.2008	1,557	1,5517	1,5623	1,549
23.06.2008	1,5516	1,5601	1,563	1,5467
20.06.2008	1,5602	1,5503	1,5654	1,549
19.06.2008	1,5502	1,553	1,5589	1,5465
18.06.2008	1,5528	1,5508	1,554	1,546
17.06.2008	1,5506	1,547	1,5555	1,5459
16.06.2008	1,5468	1,539	1,5521	1,5346
13.06.2008	1,5381	1,5452	1,5484	1,5301
12.06.2008	1,5451	1,5556	1,5569	1,5378
11.06.2008	1,5556	1,5458	1,5589	1,5452
10.06.2008	1,5458	1,5641	1,5657	1,5438
09.06.2008	1,5642	1,5787	1,5846	1,5618
06.06.2008	1,5783	1,5584	1,5786	1,557
05.06.2008	1,5582	1,5427	1,5603	1,5365
04.06.2008	1,5427	1,5437	1,5485	1,5418
03.06.2008	1,5434	1,5542	1,5631	1,541
02.06.2008	1,554	1,5558	1,5592	1,5486
30.05.2008	1,5554	1,5514	1,5572	1,546
29.05.2008	1,5512	1,5649	1,5666	1,5484
28.05.2008	1,5647	1,5682	1,5763	1,5606
27.05.2008	1,5679	1,5774	1,5821	1,567
26.05.2008	1,5774	1,5765	1,5794	1,5741
23.05.2008	1,5769	1,5726	1,5797	1,5695
22.05.2008	1,5724	1,5795	1,5814	1,569
21.05.2008	1,5795	1,5653	1,58	1,5631
20.05.2008	1,5654	1,5523	1,5682	1,5502
19.05.2008	1,5519	1,5584	1,5636	1,5484
16.05.2008	1,5572	1,5443	1,5602	1,5437
15.05.2008	1,5443	1,5477	1,555	1,5419
14.05.2008	1,5477	1,547	1,5488	1,5394
13.05.2008	1,5469	1,5542	1,5568	1,543
12.05.2008	1,554	1,5454	1,5573	1,5365
09.05.2008	1,5488	1,5404	1,549	1,5392
08.05.2008	1,5405	1,5399	1,5442	1,5284
07.05.2008	1,5397	1,5532	1,5542	1,5366
06.05.2008	1,5532	1,5501	1,5597	1,545
05.05.2008	1,5499	1,5436	1,5522	1,5424
02.05.2008	1,543	1,547	1,5503	1,536
01.05.2008	1,5469	1,5619	1,5646	1,5428
30.04.2008	1,5619	1,5568	1,5646	1,5516
29.04.2008	1,5566	1,5655	1,5663	1,5539
28.04.2008	1,5653	1,5602	1,5696	1,5594
25.04.2008	1,5627	1,5682	1,571	1,5553
24.04.2008	1,5681	1,5884	1,5893	1,5636
23.04.2008	1,5884	1,5998	1,6001	1,5859
22.04.2008	1,5998	1,5909	1,6022	1,5833
21.04.2008	1,5909	1,58	1,5948	1,5791
18.04.2008	1,5815	1,5895	1,5959	1,571
17.04.2008	1,5893	1,5944	1,5985	1,5846
16.04.2008	1,5943	1,5787	1,5981	1,576
15.04.2008	1,5787	1,5837	1,5877	1,5751
14.04.2008	1,5836	1,5721	1,5889	1,567
11.04.2008	1,5772	1,5745	1,5858	1,5738
10.04.2008	1,5744	1,5837	1,5915	1,5724
09.04.2008	1,5836	1,5704	1,5867	1,5683
08.04.2008	1,5704	1,5706	1,5801	1,5674
07.04.2008	1,5705	1,5731	1,5739	1,5626
04.04.2008	1,5718	1,5682	1,5776	1,5636
03.04.2008	1,5683	1,5685	1,569	1,5509
02.04.2008	1,5686	1,5622	1,5704	1,5533
01.04.2008	1,5624	1,5764	1,5789	1,5562
31.03.2008	1,5762	1,5788	1,5897	1,5759
28.03.2008	1,5812	1,5812	1,5841	1,5741
27.03.2008	1,5812	1,5835	1,5848	1,5725
26.03.2008	1,5833	1,563	1,5861	1,5582
25.03.2008	1,5631	1,541	1,5661	1,5408
24.03.2008	1,541	1,5412	1,5457	1,534
21.03.2008	1,5433	1,5448	1,5476	1,5404
20.03.2008	1,5445	1,5644	1,5649	1,5395
19.03.2008	1,5642	1,5639	1,5788	1,5581
18.03.2008	1,5638	1,5715	1,5834	1,5612
17.03.2008	1,5717	1,5749	1,5907	1,5685
14.03.2008	1,5676	1,5613	1,569	1,553
13.03.2008	1,5611	1,5531	1,5647	1,5521
12.03.2008	1,5531	1,5343	1,5575	1,5333
11.03.2008	1,5343	1,5368	1,5496	1,5281
10.03.2008	1,5369	1,539	1,5404	1,5313
07.03.2008	1,5356	1,539	1,5476	1,5312
06.03.2008	1,5389	1,5276	1,5397	1,5267
05.03.2008	1,5275	1,5203	1,5305	1,5145
04.03.2008	1,5202	1,5198	1,5251	1,5173
03.03.2008	1,5199	1,5202	1,5276	1,5156
29.02.2008	1,5172	1,5191	1,524	1,5143
28.02.2008	1,519	1,5118	1,5232	1,5072
27.02.2008	1,5118	1,5016	1,5147	1,4981
26.02.2008	1,5011	1,4828	1,5049	1,4777
25.02.2008	1,4829	1,4832	1,4846	1,4794
22.02.2008	1,4826	1,4821	1,4865	1,4788
21.02.2008	1,4821	1,4715	1,484	1,4702
20.02.2008	1,4714	1,4727	1,4734	1,4614
19.02.2008	1,4729	1,4653	1,4759	1,4641
18.02.2008	1,4654	1,4671	1,4692	1,4611
15.02.2008	1,4687	1,4642	1,4711	1,463
14.02.2008	1,4642	1,4571	1,4651	1,4548
13.02.2008	1,4571	1,4576	1,46	1,4531
12.02.2008	1,4576	1,4518	1,4618	1,4495
11.02.2008	1,4518	1,4529	1,4606	1,448
08.02.2008	1,4506	1,4491	1,4549	1,4451
07.02.2008	1,4494	1,4623	1,4654	1,4438
06.02.2008	1,4622	1,4647	1,4674	1,459
05.02.2008	1,4647	1,4829	1,4833	1,4621
04.02.2008	1,4828	1,4803	1,4851	1,4792
01.02.2008	1,4804	1,4847	1,4961	1,4785
31.01.2008	1,4847	1,4859	1,4916	1,48
30.01.2008	1,4855	1,4769	1,4909	1,4754
29.01.2008	1,4768	1,4788	1,4797	1,4735
28.01.2008	1,4789	1,4697	1,48	1,4661
25.01.2008	1,4694	1,4758	1,478	1,4659
24.01.2008	1,4757	1,4632	1,4782	1,459
23.01.2008	1,4632	1,4636	1,4652	1,451
22.01.2008	1,4671	1,4434	1,4687	1,4364
21.01.2008	1,4431	1,459	1,4592	1,4423
18.01.2008	1,46	1,464	1,4697	1,4596
17.01.2008	1,4643	1,4653	1,4716	1,4588
16.01.2008	1,4654	1,4777	1,4862	1,4594
15.01.2008	1,4777	1,4864	1,4925	1,4774
14.01.2008	1,4864	1,4808	1,4917	1,4795
11.01.2008	1,478	1,4809	1,4821	1,476
10.01.2008	1,4808	1,466	1,4817	1,464
09.01.2008	1,4659	1,4709	1,4745	1,4638
08.01.2008	1,4709	1,4689	1,4745	1,4678
07.01.2008	1,4688	1,4747	1,475	1,4657
04.01.2008	1,4735	1,4744	1,4827	1,4693
03.01.2008	1,4743	1,4724	1,4783	1,4686
02.01.2008	1,4723	1,4595	1,4752	1,4593
01.01.2008	1,4594	1,4597	1,4625	1,4573
31.12.2007	1,459	1,4736	1,475	1,4568
28.12.2007	1,4727	1,4612	1,4731	1,4591
27.12.2007	1,4612	1,4484	1,4643	1,4468
26.12.2007	1,4483	1,44	1,4508	1,4389
25.12.2007	1,4399	1,4394	1,4448	1,4387
24.12.2007	1,4395	1,4381	1,4415	1,4373
21.12.2007	1,4382	1,4321	1,4413	1,4318
20.12.2007	1,432	1,4373	1,4394	1,4308
19.12.2007	1,4372	1,4408	1,4426	1,4324
18.12.2007	1,4409	1,4412	1,4437	1,4365
17.12.2007	1,4413	1,4422	1,4455	1,4329
14.12.2007	1,4424	1,4621	1,4661	1,4411
13.12.2007	1,462	1,4713	1,4739	1,4575
12.12.2007	1,4712	1,4658	1,4751	1,4649
11.12.2007	1,4658	1,4708	1,4753	1,4639
10.12.2007	1,4722	1,4655	1,4738	1,4639
07.12.2007	1,4664	1,464	1,4675	1,4598
06.12.2007	1,464	1,4617	1,4668	1,4526
05.12.2007	1,4618	1,4767	1,4772	1,459
04.12.2007	1,4767	1,4669	1,477	1,4634
03.12.2007	1,4669	1,4658	1,4712	1,4618
30.11.2007	1,4642	1,4747	1,4787	1,4624
29.11.2007	1,4748	1,4833	1,4846	1,4721
28.11.2007	1,4833	1,4829	1,4861	1,4709
27.11.2007	1,4829	1,4866	1,4911	1,4807
26.11.2007	1,4865	1,4836	1,4889	1,4804
23.11.2007	1,4841	1,4848	1,4968	1,4783
22.11.2007	1,4848	1,4848	1,4875	1,482
21.11.2007	1,4848	1,4838	1,4872	1,4773
20.11.2007	1,4839	1,4669	1,4854	1,4634
19.11.2007	1,4668	1,4665	1,469	1,4619
16.11.2007	1,4658	1,4615	1,4676	1,4579
15.11.2007	1,4615	1,4651	1,4707	1,4604
14.11.2007	1,4626	1,4618	1,4629	1,4614
13.11.2007	1,4618	1,4531	1,4636	1,452
12.11.2007	1,4531	1,4655	1,4668	1,4524
09.11.2007	1,467	1,4676	1,4756	1,463
08.11.2007	1,4675	1,463	1,4707	1,4621
07.11.2007	1,4629	1,4564	1,4734	1,4551
06.11.2007	1,4565	1,4474	1,4574	1,4468
05.11.2007	1,4475	1,4499	1,4523	1,4442
02.11.2007	1,446	1,4427	1,4531	1,4421
01.11.2007	1,4426	1,4473	1,4481	1,4402
31.10.2007	1,4472	1,444	1,4506	1,4417
30.10.2007	1,4439	1,442	1,4444	1,4373
29.10.2007	1,4421	1,4406	1,444	1,4375
26.10.2007	1,4395	1,4328	1,4401	1,4295
25.10.2007	1,4331	1,4262	1,4348	1,4234
24.10.2007	1,4262	1,4264	1,4271	1,4187
23.10.2007	1,4262	1,4177	1,4283	1,4132
22.10.2007	1,4176	1,433	1,4352	1,4124
19.10.2007	1,4303	1,4286	1,4322	1,4243
18.10.2007	1,4287	1,4214	1,4313	1,4194
17.10.2007	1,4217	1,4172	1,4234	1,4155
16.10.2007	1,4173	1,4212	1,4229	1,4142
15.10.2007	1,4213	1,4168	1,4247	1,416
12.10.2007	1,4175	1,4201	1,423	1,4152
11.10.2007	1,4201	1,4143	1,4244	1,4134
10.10.2007	1,4141	1,4106	1,4175	1,4087
09.10.2007	1,4105	1,4055	1,4116	1,4013
08.10.2007	1,4056	1,4147	1,4157	1,4034
05.10.2007	1,414	1,4136	1,416	1,403
04.10.2007	1,4135	1,4091	1,4165	1,4066
03.10.2007	1,4092	1,4152	1,4204	1,4082
02.10.2007	1,415	1,4232	1,424	1,4137
01.10.2007	1,4233	1,427	1,4278	1,4209
28.09.2007	1,4272	1,4148	1,4281	1,4135
27.09.2007	1,4147	1,4131	1,4192	1,4123
26.09.2007	1,4132	1,4147	1,4164	1,411
25.09.2007	1,4146	1,4078	1,4157	1,4059
24.09.2007	1,4079	1,4089	1,4134	1,4065
21.09.2007	1,4091	1,4069	1,4124	1,4042
20.09.2007	1,4069	1,3966	1,4101	1,3946
19.09.2007	1,3967	1,3981	1,3991	1,3867
18.09.2007	1,3983	1,3859	1,399	1,3826
17.09.2007	1,3859	1,3866	1,3892	1,3846
14.09.2007	1,3877	1,3867	1,3899	1,3842
13.09.2007	1,3866	1,3907	1,393	1,3861
12.09.2007	1,3906	1,3838	1,3917	1,3822
11.09.2007	1,3839	1,3805	1,3852	1,3777
10.09.2007	1,3806	1,3776	1,3818	1,3765
07.09.2007	1,3768	1,3691	1,3802	1,3661
06.09.2007	1,369	1,3651	1,3714	1,3634
05.09.2007	1,3651	1,3608	1,3674	1,3567
04.09.2007	1,3608	1,3626	1,363	1,355
03.09.2007	1,3624	1,3634	1,3657	1,3604
31.08.2007	1,363	1,3632	1,3723	1,3619
30.08.2007	1,3633	1,3675	1,3679	1,359
29.08.2007	1,3675	1,3601	1,3683	1,3561
28.08.2007	1,3602	1,3643	1,3683	1,3599
27.08.2007	1,364	1,3676	1,3687	1,3634
24.08.2007	1,3683	1,3567	1,3687	1,3552
23.08.2007	1,3568	1,3551	1,3591	1,3531
22.08.2007	1,3551	1,3462	1,3554	1,3449
21.08.2007	1,3463	1,3477	1,3524	1,3456
20.08.2007	1,3476	1,3487	1,351	1,3458
17.08.2007	1,3475	1,3427	1,3549	1,3368
16.08.2007	1,3428	1,3424	1,3484	1,3358
15.08.2007	1,3424	1,3537	1,3585	1,3416
14.08.2007	1,3536	1,3609	1,3629	1,3529
13.08.2007	1,3608	1,3688	1,3711	1,3602
10.08.2007	1,368	1,3681	1,3708	1,3641
09.08.2007	1,368	1,3794	1,3819	1,3653
08.08.2007	1,3795	1,3742	1,3829	1,372
07.08.2007	1,3744	1,3796	1,3819	1,3734
06.08.2007	1,3795	1,3816	1,3841	1,3779
03.08.2007	1,3772	1,37	1,3821	1,3681
02.08.2007	1,3702	1,3677	1,3709	1,3649
01.08.2007	1,3677	1,3679	1,3713	1,3636
31.07.2007	1,3678	1,3697	1,3729	1,3669
30.07.2007	1,3697	1,3634	1,3708	1,362
27.07.2007	1,3635	1,374	1,3756	1,3623
26.07.2007	1,3741	1,3725	1,3773	1,3691
25.07.2007	1,3725	1,3829	1,3832	1,3686
24.07.2007	1,3828	1,3806	1,3855	1,3797
23.07.2007	1,3807	1,3834	1,3847	1,3794
20.07.2007	1,3839	1,3798	1,3854	1,3779
19.07.2007	1,3799	1,3807	1,3834	1,3784
18.07.2007	1,3806	1,3784	1,3836	1,375
17.07.2007	1,3783	1,3774	1,3803	1,3756
16.07.2007	1,3773	1,3775	1,3806	1,3758
13.07.2007	1,3788	1,3788	1,3815	1,3761
12.07.2007	1,3789	1,3744	1,3802	1,374
11.07.2007	1,3745	1,3769	1,3784	1,371
10.07.2007	1,377	1,3626	1,3786	1,3592
09.07.2007	1,3627	1,3626	1,3642	1,3609
06.07.2007	1,3625	1,3594	1,3644	1,3567
05.07.2007	1,3594	1,3615	1,3662	1,3578
04.07.2007	1,3613	1,361	1,3636	1,3604
03.07.2007	1,3609	1,3621	1,3637	1,3582
02.07.2007	1,3633	1,3539	1,3641	1,3517
29.06.2007	1,3542	1,3443	1,3548	1,3428
28.06.2007	1,3447	1,3455	1,3484	1,3422
27.06.2007	1,3452	1,3441	1,3469	1,3413
26.06.2007	1,3459	1,3466	1,348	1,343
25.06.2007	1,3463	1,346	1,3476	1,3435
22.06.2007	1,3464	1,339	1,3473	1,338
21.06.2007	1,3387	1,3396	1,3427	1,337
20.06.2007	1,3401	1,3424	1,344	1,3395
19.06.2007	1,3424	1,3418	1,344	1,3382
18.06.2007	1,3415	1,338	1,3421	1,3377
15.06.2007	1,3378	1,3316	1,3395	1,3304
14.06.2007	1,3311	1,331	1,3327	1,3278
13.06.2007	1,3311	1,3302	1,3319	1,3262
12.06.2007	1,3303	1,3353	1,3376	1,3299
11.06.2007	1,3358	1,3357	1,3365	1,3331
08.06.2007	1,3371	1,3426	1,3458	1,3318
07.06.2007	1,3428	1,3501	1,3516	1,342
06.06.2007	1,3498	1,3516	1,3544	1,3483
05.06.2007	1,3518	1,3496	1,3558	1,3487
04.06.2007	1,3494	1,3441	1,3503	1,343
01.06.2007	1,3447	1,3454	1,3467	1,339
31.05.2007	1,3453	1,3429	1,348	1,3417
30.05.2007	1,343	1,3449	1,3485	1,3405
29.05.2007	1,3448	1,3449	1,3522	1,3418
28.05.2007	1,3448	1,345	1,3465	1,3443
25.05.2007	1,3442	1,3431	1,3476	1,3411
24.05.2007	1,3432	1,3456	1,3485	1,3414
23.05.2007	1,3456	1,3451	1,3593	1,3415
22.05.2007	1,345	1,3465	1,348	1,3438
21.05.2007	1,3464	1,3522	1,3526	1,3434
18.05.2007	1,351	1,3498	1,3525	1,3464
17.05.2007	1,3498	1,3516	1,3546	1,3476
16.05.2007	1,3516	1,3594	1,3613	1,3502
15.05.2007	1,3593	1,3542	1,3612	1,3525
14.05.2007	1,3542	1,3528	1,3562	1,3515
11.05.2007	1,3525	1,3476	1,3534	1,3461
10.05.2007	1,3477	1,3527	1,3568	1,3462
09.05.2007	1,3528	1,3544	1,357	1,3519
08.05.2007	1,3544	1,3599	1,3625	1,3514
07.05.2007	1,3598	1,3597	1,363	1,3583
04.05.2007	1,3587	1,3552	1,3613	1,3531
03.05.2007	1,3552	1,3584	1,3625	1,3546
02.05.2007	1,3584	1,3605	1,3662	1,3559
01.05.2007	1,3605	1,3642	1,3675	1,3589
30.04.2007	1,3643	1,3648	1,3683	1,3587
27.04.2007	1,3658	1,3594	1,3683	1,3585
26.04.2007	1,3592	1,3643	1,3658	1,3583
25.04.2007	1,3644	1,364	1,3669	1,3619
24.04.2007	1,3639	1,3577	1,3646	1,3546
23.04.2007	1,3578	1,3605	1,3607	1,354
20.04.2007	1,3591	1,3619	1,364	1,3583
19.04.2007	1,3619	1,3613	1,3622	1,3559
18.04.2007	1,3612	1,3574	1,3619	1,3554
17.04.2007	1,3575	1,3531	1,3598	1,3523
16.04.2007	1,3529	1,3575	1,3578	1,3515
13.04.2007	1,3528	1,3487	1,3557	1,348
12.04.2007	1,3487	1,3434	1,3507	1,3429
11.04.2007	1,3435	1,3431	1,3445	1,3407
10.04.2007	1,3432	1,3357	1,3459	1,3348
09.04.2007	1,3357	1,3373	1,3429	1,3338
06.04.2007	1,3381	1,3433	1,3435	1,3363
05.04.2007	1,343	1,3371	1,3443	1,3351
04.04.2007	1,337	1,3329	1,3384	1,3317
03.04.2007	1,3329	1,3369	1,3384	1,3319
02.04.2007	1,3368	1,3355	1,3385	1,3331
30.03.2007	1,3357	1,3331	1,3403	1,3287
29.03.2007	1,3332	1,3315	1,3357	1,33
28.03.2007	1,3315	1,3358	1,3378	1,3306
27.03.2007	1,3359	1,333	1,337	1,3321
26.03.2007	1,333	1,3269	1,335	1,3252
23.03.2007	1,3284	1,3326	1,3345	1,328
22.03.2007	1,3327	1,339	1,3414	1,3298
21.03.2007	1,3389	1,3317	1,3392	1,3288
20.03.2007	1,3318	1,3291	1,3325	1,327
16.03.2007	1,3304	1,3242	1,3342	1,3228
15.03.2007	1,324	1,3217	1,3255	1,3192
14.03.2007	1,3216	1,3196	1,3249	1,3175
13.03.2007	1,3193	1,3191	1,3225	1,3154
12.03.2007	1,319	1,3125	1,3202	1,3107
09.03.2007	1,3115	1,3135	1,3163	1,3085
08.03.2007	1,3135	1,3179	1,3185	1,3115
07.03.2007	1,318	1,3129	1,3189	1,3103
06.03.2007	1,3128	1,3084	1,3135	1,3079
05.03.2007	1,3082	1,3184	1,3197	1,307
02.03.2007	1,3163	1,3175	1,3204	1,3141
01.03.2007	1,3176	1,3227	1,3244	1,3153
28.02.2007	1,3225	1,3239	1,3242	1,3179
27.02.2007	1,324	1,319	1,3262	1,3155
26.02.2007	1,319	1,3181	1,3201	1,3149
23.02.2007	1,317	1,3127	1,319	1,31
22.02.2007	1,3128	1,3143	1,3145	1,3079
21.02.2007	1,3143	1,3136	1,317	1,3111
20.02.2007	1,3137	1,3152	1,3192	1,3129
19.02.2007	1,3152	1,3151	1,3165	1,3121
16.02.2007	1,3139	1,3138	1,3149	1,3093
15.02.2007	1,3138	1,3135	1,3176	1,3116
14.02.2007	1,3134	1,3037	1,3155	1,3021
13.02.2007	1,3037	1,2963	1,3046	1,2952
12.02.2007	1,2962	1,3018	1,304	1,294
09.02.2007	1,3008	1,304	1,3049	1,2982
08.02.2007	1,3039	1,3016	1,3046	1,2974
07.02.2007	1,3017	1,2986	1,3027	1,2965
06.02.2007	1,2984	1,293	1,2994	1,2911
05.02.2007	1,293	1,2959	1,2969	1,2912
02.02.2007	1,2959	1,3024	1,3068	1,295
01.02.2007	1,3024	1,3025	1,3055	1,3001
31.01.2007	1,3023	1,2965	1,304	1,2923
30.01.2007	1,2966	1,2959	1,2984	1,2943
29.01.2007	1,2959	1,2924	1,2969	1,2896
26.01.2007	1,2932	1,2927	1,2982	1,287
25.01.2007	1,2928	1,2965	1,3005	1,2915
24.01.2007	1,2965	1,3022	1,3039	1,2946
23.01.2007	1,3021	1,2947	1,3047	1,2927
22.01.2007	1,2944	1,2964	1,2984	1,2921
19.01.2007	1,2957	1,2961	1,3004	1,2913
18.01.2007	1,2961	1,294	1,2981	1,2896
17.01.2007	1,2941	1,2918	1,2954	1,2896
16.01.2007	1,2917	1,2936	1,2991	1,2906
15.01.2007	1,2935	1,2923	1,2961	1,2914
12.01.2007	1,2924	1,2897	1,2948	1,2865
11.01.2007	1,2896	1,294	1,3018	1,2881
10.01.2007	1,294	1,2995	1,3006	1,2929
09.01.2007	1,2994	1,3029	1,3056	1,2986
08.01.2007	1,303	1,3005	1,3039	1,2971
05.01.2007	1,2997	1,3092	1,3109	1,2979
04.01.2007	1,3092	1,3165	1,3183	1,3074
03.01.2007	1,3165	1,3282	1,3293	1,3146
02.01.2007	1,3278	1,3208	1,33	1,3194
01.01.2007	1,3207	1,3195	1,3244	1,318
